serial_adder/src/rtl/dump.vcd
$date
	Fri Feb 20 14:53:02 2026
$end
$version
	QuestaSim Version 2021.2_1
$end
$timescale
	1ps
$end

$scope module top_module_tb $end
$var parameter 32 ! N $end
$var parameter 32 " NUM_TESTS $end
$var reg 1 # clk $end
$var reg 1 $ start $end
$var reg 1 % resetn $end
$var reg 8 & A [7:0] $end
$var reg 8 ' B [7:0] $end
$var wire 1 ( SUM [8] $end
$var wire 1 ) SUM [7] $end
$var wire 1 * SUM [6] $end
$var wire 1 + SUM [5] $end
$var wire 1 , SUM [4] $end
$var wire 1 - SUM [3] $end
$var wire 1 . SUM [2] $end
$var wire 1 / SUM [1] $end
$var wire 1 0 SUM [0] $end
$var integer 32 1 i $end
$var reg 9 2 expected_sum [8:0] $end

$scope task run_test_x $end
$var reg 8 3 a_in [7:0] $end
$var reg 8 4 b_in [7:0] $end
$upscope $end

$scope task run_test_u $end
$var reg 8 5 a_in [7:0] $end
$var reg 8 6 b_in [7:0] $end
$var reg 1 7 start_1 $end
$upscope $end

$scope task run_test_s $end
$var reg 8 8 a_in [7:0] $end
$var reg 8 9 b_in [7:0] $end
$upscope $end

$scope task run_test $end
$var reg 8 : a_in [7:0] $end
$var reg 8 ; b_in [7:0] $end
$upscope $end

$scope module dut $end
$var parameter 32 < N $end
$var wire 1 = clk $end
$var wire 1 > start $end
$var wire 1 ? resetn $end
$var wire 1 @ A [7] $end
$var wire 1 A A [6] $end
$var wire 1 B A [5] $end
$var wire 1 C A [4] $end
$var wire 1 D A [3] $end
$var wire 1 E A [2] $end
$var wire 1 F A [1] $end
$var wire 1 G A [0] $end
$var wire 1 H B [7] $end
$var wire 1 I B [6] $end
$var wire 1 J B [5] $end
$var wire 1 K B [4] $end
$var wire 1 L B [3] $end
$var wire 1 M B [2] $end
$var wire 1 N B [1] $end
$var wire 1 O B [0] $end
$var wire 1 ( SUM [8] $end
$var wire 1 ) SUM [7] $end
$var wire 1 * SUM [6] $end
$var wire 1 + SUM [5] $end
$var wire 1 , SUM [4] $end
$var wire 1 - SUM [3] $end
$var wire 1 . SUM [2] $end
$var wire 1 / SUM [1] $end
$var wire 1 0 SUM [0] $end
$var wire 1 P load $end
$var wire 1 Q enable $end
$var wire 1 R reset $end
$var wire 1 S done $end
$var wire 1 T a_out $end
$var wire 1 U b_out $end
$var wire 1 V f_s $end
$var wire 1 W d $end
$var wire 1 X ff_q $end
$var wire 1 Y sum_out [8] $end
$var wire 1 Z sum_out [7] $end
$var wire 1 [ sum_out [6] $end
$var wire 1 \ sum_out [5] $end
$var wire 1 ] sum_out [4] $end
$var wire 1 ^ sum_out [3] $end
$var wire 1 _ sum_out [2] $end
$var wire 1 ` sum_out [1] $end
$var wire 1 a sum_out [0] $end

$scope module fsm $end
$var parameter 32 b N $end
$var parameter 2 c IDLE $end
$var parameter 2 d LOAD $end
$var parameter 2 e SHIFT $end
$var parameter 2 f DONE $end
$var parameter 32 g W $end
$var wire 1 = clk $end
$var wire 1 > start $end
$var wire 1 ? resetn $end
$var wire 1 P load $end
$var wire 1 Q enable $end
$var wire 1 R reset $end
$var wire 1 S done $end
$var reg 4 h count [3:0] $end
$var reg 2 i state [1:0] $end
$var reg 2 j next_state [1:0] $end
$upscope $end

$scope module a1 $end
$var parameter 32 k N $end
$var wire 1 = clk $end
$var wire 1 R reset $end
$var wire 1 P load $end
$var wire 1 Q enable $end
$var wire 1 @ A [7] $end
$var wire 1 A A [6] $end
$var wire 1 B A [5] $end
$var wire 1 C A [4] $end
$var wire 1 D A [3] $end
$var wire 1 E A [2] $end
$var wire 1 F A [1] $end
$var wire 1 G A [0] $end
$var wire 1 T q $end
$var wire 1 l temp [7] $end
$var wire 1 m temp [6] $end
$var wire 1 n temp [5] $end
$var wire 1 o temp [4] $end
$var wire 1 p temp [3] $end
$var wire 1 q temp [2] $end
$var wire 1 r temp [1] $end
$var wire 1 s temp [0] $end

$scope begin dff_inst[6] $end
$var parameter 32 t i $end

$scope module dff_i $end
$var wire 1 = clk $end
$var wire 1 R reset $end
$var wire 1 u d $end
$var reg 1 v q $end
$upscope $end
$upscope $end

$scope begin dff_inst[5] $end
$var parameter 32 w i $end

$scope module dff_i $end
$var wire 1 = clk $end
$var wire 1 R reset $end
$var wire 1 x d $end
$var reg 1 y q $end
$upscope $end
$upscope $end

$scope begin dff_inst[4] $end
$var parameter 32 z i $end

$scope module dff_i $end
$var wire 1 = clk $end
$var wire 1 R reset $end
$var wire 1 { d $end
$var reg 1 | q $end
$upscope $end
$upscope $end

$scope begin dff_inst[3] $end
$var parameter 32 } i $end

$scope module dff_i $end
$var wire 1 = clk $end
$var wire 1 R reset $end
$var wire 1 ~ d $end
$var reg 1 !! q $end
$upscope $end
$upscope $end

$scope begin dff_inst[2] $end
$var parameter 32 "! i $end

$scope module dff_i $end
$var wire 1 = clk $end
$var wire 1 R reset $end
$var wire 1 #! d $end
$var reg 1 $! q $end
$upscope $end
$upscope $end

$scope begin dff_inst[1] $end
$var parameter 32 %! i $end

$scope module dff_i $end
$var wire 1 = clk $end
$var wire 1 R reset $end
$var wire 1 &! d $end
$var reg 1 '! q $end
$upscope $end
$upscope $end

$scope begin dff_inst[0] $end
$var parameter 32 (! i $end

$scope module dff_i $end
$var wire 1 = clk $end
$var wire 1 R reset $end
$var wire 1 )! d $end
$var reg 1 *! q $end
$upscope $end
$upscope $end

$scope module ff_last $end
$var wire 1 = clk $end
$var wire 1 R reset $end
$var wire 1 +! d $end
$var reg 1 ,! q $end
$upscope $end
$upscope $end

$scope module b1 $end
$var parameter 32 -! N $end
$var wire 1 = clk $end
$var wire 1 R reset $end
$var wire 1 P load $end
$var wire 1 Q enable $end
$var wire 1 H A [7] $end
$var wire 1 I A [6] $end
$var wire 1 J A [5] $end
$var wire 1 K A [4] $end
$var wire 1 L A [3] $end
$var wire 1 M A [2] $end
$var wire 1 N A [1] $end
$var wire 1 O A [0] $end
$var wire 1 U q $end
$var wire 1 .! temp [7] $end
$var wire 1 /! temp [6] $end
$var wire 1 0! temp [5] $end
$var wire 1 1! temp [4] $end
$var wire 1 2! temp [3] $end
$var wire 1 3! temp [2] $end
$var wire 1 4! temp [1] $end
$var wire 1 5! temp [0] $end

$scope begin dff_inst[6] $end
$var parameter 32 6! i $end

$scope module dff_i $end
$var wire 1 = clk $end
$var wire 1 R reset $end
$var wire 1 7! d $end
$var reg 1 8! q $end
$upscope $end
$upscope $end

$scope begin dff_inst[5] $end
$var parameter 32 9! i $end

$scope module dff_i $end
$var wire 1 = clk $end
$var wire 1 R reset $end
$var wire 1 :! d $end
$var reg 1 ;! q $end
$upscope $end
$upscope $end

$scope begin dff_inst[4] $end
$var parameter 32 <! i $end

$scope module dff_i $end
$var wire 1 = clk $end
$var wire 1 R reset $end
$var wire 1 =! d $end
$var reg 1 >! q $end
$upscope $end
$upscope $end

$scope begin dff_inst[3] $end
$var parameter 32 ?! i $end

$scope module dff_i $end
$var wire 1 = clk $end
$var wire 1 R reset $end
$var wire 1 @! d $end
$var reg 1 A! q $end
$upscope $end
$upscope $end

$scope begin dff_inst[2] $end
$var parameter 32 B! i $end

$scope module dff_i $end
$var wire 1 = clk $end
$var wire 1 R reset $end
$var wire 1 C! d $end
$var reg 1 D! q $end
$upscope $end
$upscope $end

$scope begin dff_inst[1] $end
$var parameter 32 E! i $end

$scope module dff_i $end
$var wire 1 = clk $end
$var wire 1 R reset $end
$var wire 1 F! d $end
$var reg 1 G! q $end
$upscope $end
$upscope $end

$scope begin dff_inst[0] $end
$var parameter 32 H! i $end

$scope module dff_i $end
$var wire 1 = clk $end
$var wire 1 R reset $end
$var wire 1 I! d $end
$var reg 1 J! q $end
$upscope $end
$upscope $end

$scope module ff_last $end
$var wire 1 = clk $end
$var wire 1 R reset $end
$var wire 1 K! d $end
$var reg 1 L! q $end
$upscope $end
$upscope $end

$scope module fa $end
$var wire 1 T a $end
$var wire 1 U b $end
$var wire 1 X cin $end
$var wire 1 V sum $end
$var wire 1 W c_out $end
$upscope $end

$scope module ff0 $end
$var wire 1 = clk $end
$var wire 1 R reset $end
$var wire 1 W d $end
$var reg 1 M! q $end
$upscope $end

$scope module sum1 $end
$var parameter 32 N! N $end
$var wire 1 = clk $end
$var wire 1 R reset $end
$var wire 1 Q enable $end
$var wire 1 V sum $end
$var wire 1 Y qo [8] $end
$var wire 1 Z qo [7] $end
$var wire 1 [ qo [6] $end
$var wire 1 \ qo [5] $end
$var wire 1 ] qo [4] $end
$var wire 1 ^ qo [3] $end
$var wire 1 _ qo [2] $end
$var wire 1 ` qo [1] $end
$var wire 1 a qo [0] $end
$var wire 1 O! q [8] $end
$var wire 1 P! q [7] $end
$var wire 1 Q! q [6] $end
$var wire 1 R! q [5] $end
$var wire 1 S! q [4] $end
$var wire 1 T! q [3] $end
$var wire 1 U! q [2] $end
$var wire 1 V! q [1] $end
$var wire 1 W! q [0] $end

$scope begin shift_chain[7] $end
$var parameter 32 X! i $end

$scope module ff $end
$var wire 1 = clk $end
$var wire 1 R reset $end
$var wire 1 Y! d $end
$var reg 1 Z! q $end
$upscope $end
$upscope $end

$scope begin shift_chain[6] $end
$var parameter 32 [! i $end

$scope module ff $end
$var wire 1 = clk $end
$var wire 1 R reset $end
$var wire 1 \! d $end
$var reg 1 ]! q $end
$upscope $end
$upscope $end

$scope begin shift_chain[5] $end
$var parameter 32 ^! i $end

$scope module ff $end
$var wire 1 = clk $end
$var wire 1 R reset $end
$var wire 1 _! d $end
$var reg 1 `! q $end
$upscope $end
$upscope $end

$scope begin shift_chain[4] $end
$var parameter 32 a! i $end

$scope module ff $end
$var wire 1 = clk $end
$var wire 1 R reset $end
$var wire 1 b! d $end
$var reg 1 c! q $end
$upscope $end
$upscope $end

$scope begin shift_chain[3] $end
$var parameter 32 d! i $end

$scope module ff $end
$var wire 1 = clk $end
$var wire 1 R reset $end
$var wire 1 e! d $end
$var reg 1 f! q $end
$upscope $end
$upscope $end

$scope begin shift_chain[2] $end
$var parameter 32 g! i $end

$scope module ff $end
$var wire 1 = clk $end
$var wire 1 R reset $end
$var wire 1 h! d $end
$var reg 1 i! q $end
$upscope $end
$upscope $end

$scope begin shift_chain[1] $end
$var parameter 32 j! i $end

$scope module ff $end
$var wire 1 = clk $end
$var wire 1 R reset $end
$var wire 1 k! d $end
$var reg 1 l! q $end
$upscope $end
$upscope $end

$scope begin shift_chain[0] $end
$var parameter 32 m! i $end

$scope module ff $end
$var wire 1 = clk $end
$var wire 1 R reset $end
$var wire 1 n! d $end
$var reg 1 o! q $end
$upscope $end
$upscope $end

$scope module ff0 $end
$var wire 1 = clk $end
$var wire 1 R reset $end
$var wire 1 p! d $end
$var reg 1 q! q $end
$upscope $end
$upscope $end
$upscope $end
$upscope $end

$scope begin std $end
$upscope $end
$enddefinitions $end
#0
$dumpvars
0#
x$
x%
b1001 &
b0 '
bx 2
bx h
bx i
bx j
x,!
x*!
x'!
x$!
x!!
x|
xy
xv
xL!
xJ!
xG!
xD!
xA!
x>!
x;!
x8!
xM!
xq!
xo!
xl!
xi!
xf!
xc!
x`!
x]!
xZ!
bx 3
bx 4
bx 5
bx 6
x7
b1001 8
b0 9
bx :
bx ;
b1000 !
b10100 "
b1000 <
b1000 b
b0 c
b1 d
b10 e
b11 f
b100 g
b1000 k
b0 (!
b1 %!
b10 "!
b11 }
b100 z
b101 w
b110 t
b1000 -!
b0 H!
b1 E!
b10 B!
b11 ?!
b100 <!
b101 9!
b110 6!
b1000 N!
b0 m!
b1 j!
b10 g!
b11 d!
b100 a!
b101 ^!
b110 [!
b111 X!
bx 1
x0
x/
x.
x-
x,
x+
x*
x)
x(
xP
xQ
xR
xS
xT
xU
xV
xW
xX
xa
x`
x_
x^
x]
x\
x[
xZ
xY
xs
xr
xq
xp
xo
xn
xm
xl
x5!
x4!
x3!
x2!
x1!
x0!
x/!
x.!
xW!
xV!
xU!
xT!
xS!
xR!
xQ!
xP!
xO!
0O
0N
0M
0L
0K
0J
0I
0H
1G
0F
0E
1D
0C
0B
0A
0@
x?
x>
0=
x+!
x)!
x&!
x#!
x~
x{
xx
xu
xK!
xI!
xF!
xC!
x@!
x=!
x:!
x7!
xp!
xn!
xk!
xh!
xe!
xb!
x_!
x\!
xY!
$end
#2000
b1001 2
0%
0$
0>
0Q
0U
0T
0W
0?
1R
#5000
1#
1=
b0 i
b0 h
0,!
0*!
0'!
0$!
0!!
0|
0y
0v
0L!
0J!
0G!
0D!
0A!
0>!
0;!
08!
0M!
0q!
0o!
0l!
0i!
0f!
0c!
0`!
0]!
0Z!
0P
0S
0l
0s
0r
0q
0p
0o
0n
0m
0.!
05!
04!
03!
02!
01!
00!
0/!
0X
0O!
0W!
0V!
0U!
0T!
0S!
0R!
0Q!
0P!
07!
0:!
0=!
0@!
0C!
0F!
0I!
0K!
0u
0x
0{
0~
0#!
0&!
0)!
0+!
0V
0a
0`
0_
0^
0]
0\
0[
0Z
0Y
00
0/
0.
0-
0,
0+
0*
0)
0(
0Y!
0p!
0n!
0k!
0h!
0e!
0b!
0_!
0\!
b0 j
#10000
0#
0=
#15000
1#
1=
1%
1?
0R
b1 j
#20000
0#
0=
#25000
1#
1=
b1 i
1P
1~
1)!
b10 j
#30000
0#
0=
#35000
1#
1=
1*!
1!!
b10 i
1s
1p
0P
#40000
0#
0=
#45000
1#
1=
#50000
0#
0=
#55000
1#
1=
#60000
0#
0=
#65000
1#
1=
#70000
0#
0=
#75000
0%
1$
1#
1>
1Q
1T
0~
1#!
0)!
1V
1p!
0?
1=
1R
0*!
0!!
b0 i
b1 h
0s
0p
0Q
0T
0#!
0p!
0V
b0 j
#80000
0#
0=
#85000
1#
1=
b0 h
#90000
0#
0=
#95000
1#
1=
#100000
0#
0=
#105000
1#
1=
#110000
0#
0=
#115000
1#
1=
#120000
0#
0=
#125000
0$
1#
0>
1=
#130000
0#
0=
#135000
1#
1=
#140000
0#
0=
#145000
1#
1=
#150000
0#
0=
#155000
1#
1=
#160000
0#
0=
#165000
1#
1=
#170000
0#
0=
#175000
1%
1$
1#
1>
1?
1=
0R
b1 j
#180000
0#
0=
#185000
1#
1=
b1 i
1P
1~
1)!
b10 j
#190000
0#
0=
#195000
1#
1=
1*!
1!!
b10 i
1s
1p
1Q
0P
1T
0)!
0~
1#!
1V
1p!
#200000
0#
0=
#205000
1#
1=
1q!
1$!
b1 h
0!!
0*!
1O!
1q
0p
0s
1Y
1Y!
0#!
1&!
0T
0V
0p!
#210000
0#
0=
#215000
1#
1=
1'!
1Z!
b10 h
0$!
0q!
1r
1P!
0q
0O!
0&!
1)!
1Z
0Y
0Y!
1\!
#220000
0#
0=
#225000
1#
1=
1]!
1*!
b11 h
0Z!
0'!
1Q!
1s
0P!
0r
1[
0Z
1_!
0\!
1T
0)!
1V
1p!
#230000
0#
0=
#235000
1#
1=
1q!
1`!
b100 h
0*!
0]!
1O!
1R!
0s
0Q!
1\
0[
1Y
1Y!
0_!
1b!
0T
0V
0p!
#240000
0#
0=
#245000
1#
1=
1c!
1Z!
b101 h
0`!
0q!
1S!
1P!
0R!
0O!
1]
0\
1Z
0Y
1e!
0b!
0Y!
1\!
#250000
0#
0=
#255000
1#
1=
1]!
1f!
b110 h
0Z!
0c!
1Q!
1T!
0P!
0S!
1^
0]
1[
0Z
1_!
0\!
0e!
1h!
#260000
0#
0=
#265000
1#
1=
1i!
1`!
b111 h
0f!
0]!
1U!
1R!
0T!
0Q!
1_
0^
1\
0[
1k!
0h!
0_!
1b!
#270000
0#
0=
#275000
1#
1=
1c!
1l!
b1000 h
0`!
0i!
1S!
1V!
0R!
0U!
1`
0_
1]
0\
1e!
0b!
0k!
1n!
b11 j
#280000
0#
0=
#285000
1#
1=
1o!
1f!
b11 i
b1001 h
0l!
0c!
1W!
1T!
0Q
1S
0V!
0S!
1/
1,
1a
0`
1^
0]
10
0/
1-
0,
#290000
0#
0=
#295000
1#
1=
#297000
0$
0>
#300000
0#
0=
#305000
1#
1=
b11111111 8
b11111111 9
b11111111 &
b11111111 '
1O
1N
1M
1L
1K
1J
1I
1H
1F
1E
1C
1B
1A
1@
#307000
b111111110 2
0%
0?
1R
#310000
0#
0=
#315000
1#
1=
0o!
0f!
b0 i
b0 h
0W!
0T!
0S
0n!
0e!
00
0-
0a
0^
b0 j
#320000
0#
0=
#325000
1#
1=
1%
1?
0R
b1 j
#330000
0#
0=
#335000
1#
1=
b1 i
1P
17!
1:!
1=!
1@!
1C!
1F!
1I!
1K!
1u
1x
1{
1~
1#!
1&!
1)!
1+!
b10 j
#340000
0#
0=
#345000
1#
1=
1,!
1*!
1'!
1$!
1!!
1|
1y
1v
1L!
1J!
1G!
1D!
1A!
1>!
1;!
18!
b10 i
1l
1s
1r
1q
1p
1o
1n
1m
1.!
15!
14!
13!
12!
11!
10!
1/!
0P
#350000
0#
0=
#355000
1#
1=
#360000
0#
0=
#365000
1#
1=
#370000
0#
0=
#375000
1#
1=
#380000
0#
0=
#385000
0%
1$
1#
1>
1Q
1U
0K!
1T
0+!
1W
0?
1=
1R
0,!
0L!
b0 i
b1 h
0l
0.!
0Q
0U
0T
0W
b0 j
#390000
0#
0=
#395000
1#
1=
b0 h
0*!
0'!
0$!
0!!
0|
0y
0v
0J!
0G!
0D!
0A!
0>!
0;!
08!
0s
0r
0q
0p
0o
0n
0m
05!
04!
03!
02!
01!
00!
0/!
0)!
0&!
0#!
0~
0{
0x
0u
0I!
0F!
0C!
0@!
0=!
0:!
07!
#400000
0#
0=
#405000
1#
1=
#410000
0#
0=
#415000
1#
1=
#420000
0#
0=
#425000
1#
1=
#430000
0#
0=
#435000
0$
1#
0>
1=
#440000
0#
0=
#445000
1#
1=
#450000
0#
0=
#455000
1#
1=
#460000
0#
0=
#465000
1#
1=
#470000
0#
0=
#475000
1#
1=
#480000
0#
0=
#485000
1%
1$
1#
1>
1?
1=
0R
b1 j
#490000
0#
0=
#495000
1#
1=
b1 i
1P
17!
1:!
1=!
1@!
1C!
1F!
1I!
1K!
1u
1x
1{
1~
1#!
1&!
1)!
1+!
b10 j
#500000
0#
0=
#505000
1#
1=
1,!
1*!
1'!
1$!
1!!
1|
1y
1v
1L!
1J!
1G!
1D!
1A!
1>!
1;!
18!
b10 i
1l
1s
1r
1q
1p
1o
1n
1m
1.!
15!
14!
13!
12!
11!
10!
1/!
1Q
0P
0+!
1T
0K!
1U
1W
#510000
0#
0=
#515000
1#
1=
1M!
b1 h
0L!
0,!
1X
0.!
0l
1V
07!
0u
1p!
#520000
0#
0=
#525000
1#
1=
1q!
0v
08!
b10 h
1O!
0m
0/!
1Y
1Y!
0x
0:!
#530000
0#
0=
#535000
1#
1=
0;!
0y
1Z!
b11 h
00!
0n
1P!
0=!
0{
1Z
1\!
#540000
0#
0=
#545000
1#
1=
1]!
0|
0>!
b100 h
1Q!
0o
01!
1[
1_!
0~
0@!
#550000
0#
0=
#555000
1#
1=
0A!
0!!
1`!
b101 h
02!
0p
1R!
0C!
0#!
1\
1b!
#560000
0#
0=
#565000
1#
1=
1c!
0$!
0D!
b110 h
1S!
0q
03!
1]
1e!
0&!
0F!
#570000
0#
0=
#575000
1#
1=
0G!
0'!
1f!
b111 h
04!
0r
1T!
0I!
0)!
1^
1h!
#580000
0#
0=
#585000
1#
1=
1i!
0*!
0J!
b1000 h
1U!
0s
05!
1_
1k!
0T
0U
0W
b11 j
#590000
0#
0=
#595000
1#
1=
0M!
1l!
b11 i
b1001 h
0X
1V!
0Q
1S
0V
1.
1-
1,
1+
1*
1)
1(
1`
1/
#600000
0#
0=
#605000
1#
1=
#607000
0$
0>
#610000
0#
0=
#615000
1#
1=
b1 9
b1 '
0N
0M
0L
0K
0J
0I
0H
#617000
b100000000 2
0%
0?
1R
#620000
0#
0=
#625000
1#
1=
0q!
0l!
0i!
0f!
0c!
0`!
0]!
0Z!
b0 i
b0 h
0O!
0V!
0U!
0T!
0S!
0R!
0Q!
0P!
0S
0Y!
0p!
0k!
0h!
0e!
0b!
0_!
0\!
0/
0.
0-
0,
0+
0*
0)
0(
0`
0_
0^
0]
0\
0[
0Z
0Y
b0 j
#630000
0#
0=
#635000
1#
1=
1%
1?
0R
b1 j
#640000
0#
0=
#645000
1#
1=
b1 i
1P
1I!
1u
1x
1{
1~
1#!
1&!
1)!
1+!
b10 j
#650000
0#
0=
#655000
1#
1=
1,!
1*!
1'!
1$!
1!!
1|
1y
1v
1J!
b10 i
1l
1s
1r
1q
1p
1o
1n
1m
15!
0P
#660000
0#
0=
#665000
1#
1=
#670000
0#
0=
#675000
1#
1=
#680000
0#
0=
#685000
1#
1=
#690000
0#
0=
#695000
0%
1$
1#
1>
1Q
1U
0I!
1T
0+!
1W
0?
1=
1R
0,!
0J!
b0 i
b1 h
0l
05!
0Q
0U
0T
0W
b0 j
#700000
0#
0=
#705000
1#
1=
b0 h
0*!
0'!
0$!
0!!
0|
0y
0v
0s
0r
0q
0p
0o
0n
0m
0)!
0&!
0#!
0~
0{
0x
0u
#710000
0#
0=
#715000
1#
1=
#720000
0#
0=
#725000
1#
1=
#730000
0#
0=
#735000
1#
1=
#740000
0#
0=
#745000
0$
1#
0>
1=
#750000
0#
0=
#755000
1#
1=
#760000
0#
0=
#765000
1#
1=
#770000
0#
0=
#775000
1#
1=
#780000
0#
0=
#785000
1#
1=
#790000
0#
0=
#795000
1%
1$
1#
1>
1?
1=
0R
b1 j
#800000
0#
0=
#805000
1#
1=
b1 i
1P
1I!
1u
1x
1{
1~
1#!
1&!
1)!
1+!
b10 j
#810000
0#
0=
#815000
1#
1=
1,!
1*!
1'!
1$!
1!!
1|
1y
1v
1J!
b10 i
1l
1s
1r
1q
1p
1o
1n
1m
15!
1Q
0P
0+!
1T
1U
0I!
1W
#820000
0#
0=
#825000
1#
1=
1M!
b1 h
0J!
0,!
1X
05!
0l
1V
0U
0u
1p!
0V
0p!
#830000
0#
0=
#835000
1#
1=
0v
b10 h
0m
0x
#840000
0#
0=
#845000
1#
1=
0y
b11 h
0n
0{
#850000
0#
0=
#855000
1#
1=
0|
b100 h
0o
0~
#860000
0#
0=
#865000
1#
1=
0!!
b101 h
0p
0#!
#870000
0#
0=
#875000
1#
1=
0$!
b110 h
0q
0&!
#880000
0#
0=
#885000
1#
1=
0'!
b111 h
0r
0)!
#890000
0#
0=
#895000
1#
1=
0*!
b1000 h
0s
0T
0W
1V
1p!
b11 j
#900000
0#
0=
#905000
1#
1=
1q!
0M!
b11 i
b1001 h
1O!
0X
0Q
1S
1Y
0V
1(
#910000
0#
0=
#915000
1#
1=
#917000
0$
0>
#920000
0#
0=
#925000
1#
1=
b1100100 8
b10011011 9
b1100100 &
b10011011 '
1N
1L
1K
1H
0G
0F
0D
0C
0@
#927000
b11111111 2
0%
0?
1R
#930000
0#
0=
#935000
1#
1=
0q!
b0 i
b0 h
0O!
0S
0p!
0(
0Y
b0 j
#940000
0#
0=
#945000
1#
1=
1%
1?
0R
b1 j
#950000
0#
0=
#955000
1#
1=
b1 i
1P
1=!
1@!
1F!
1I!
1K!
1u
1x
1#!
b10 j
#960000
0#
0=
#965000
1#
1=
1$!
1y
1v
1L!
1J!
1G!
1A!
1>!
b10 i
1q
1n
1m
1.!
15!
14!
12!
11!
0P
#970000
0#
0=
#975000
1#
1=
#980000
0#
0=
#985000
1#
1=
#990000
0#
0=
#995000
1#
1=
#1000000
0#
0=
#1005000
0%
1$
1#
1>
1Q
1U
17!
0=!
1C!
0F!
0K!
0u
1{
0#!
1&!
1V
1p!
0?
1=
1R
0$!
0v
0L!
0G!
0>!
b0 i
b1 h
0q
0m
0.!
04!
01!
0Q
0&!
07!
0p!
0U
0C!
0{
0V
b0 j
#1010000
0#
0=
#1015000
1#
1=
b0 h
0y
0J!
0A!
0n
05!
02!
0x
0I!
0@!
#1020000
0#
0=
#1025000
1#
1=
#1030000
0#
0=
#1035000
1#
1=
#1040000
0#
0=
#1045000
1#
1=
#1050000
0#
0=
#1055000
0$
1#
0>
1=
#1060000
0#
0=
#1065000
1#
1=
#1070000
0#
0=
#1075000
1#
1=
#1080000
0#
0=
#1085000
1#
1=
#1090000
0#
0=
#1095000
1#
1=
#1100000
0#
0=
#1105000
1%
1$
1#
1>
1?
1=
0R
b1 j
#1110000
0#
0=
#1115000
1#
1=
b1 i
1P
1=!
1@!
1F!
1I!
1K!
1u
1x
1#!
b10 j
#1120000
0#
0=
#1125000
1#
1=
1$!
1y
1v
1L!
1J!
1G!
1A!
1>!
b10 i
1q
1n
1m
1.!
15!
14!
12!
11!
1Q
0P
0#!
1&!
1{
0u
17!
0K!
1U
0F!
1C!
0=!
1V
1p!
#1130000
0#
0=
#1135000
1#
1=
1q!
1D!
18!
1|
1'!
b1 h
0>!
0G!
0L!
0v
0$!
1O!
13!
1/!
1o
1r
01!
04!
0.!
0m
0q
1Y
1Y!
1F!
07!
1:!
1~
0&!
1)!
0@!
0I!
0x
#1140000
0#
0=
#1145000
1#
1=
0y
0J!
0A!
1*!
1!!
1;!
1Z!
1G!
b10 h
0'!
08!
0n
05!
02!
1s
1p
10!
1P!
14!
0r
0/!
0{
0U
1I!
0C!
1T
0)!
1#!
0:!
1=!
1Z
1\!
#1150000
0#
0=
#1155000
1#
1=
1]!
1>!
1$!
0D!
0|
b11 h
0;!
0*!
1J!
1Q!
11!
1q
03!
0o
00!
0s
15!
1[
1_!
0=!
1@!
1&!
0F!
0~
0T
1U
#1160000
0#
0=
#1165000
1#
1=
0!!
0G!
1'!
1A!
1`!
b100 h
0>!
0p
04!
1r
12!
1R!
01!
0#!
0I!
1)!
0@!
1C!
1\
1b!
#1170000
0#
0=
#1175000
1#
1=
1c!
1D!
1*!
0J!
0$!
b101 h
0A!
1S!
13!
1s
05!
0q
02!
1]
1e!
0C!
1F!
1T
0U
0&!
#1180000
0#
0=
#1185000
1#
1=
0'!
1G!
1f!
b110 h
0D!
0r
14!
1T!
03!
0)!
0F!
1I!
1^
1h!
#1190000
0#
0=
#1195000
1#
1=
1i!
1J!
0*!
b111 h
0G!
1U!
15!
0s
04!
1_
1k!
1U
0I!
0T
#1200000
0#
0=
#1205000
1#
1=
1l!
b1000 h
0J!
1V!
05!
1`
1n!
0U
0V
0p!
b11 j
#1210000
0#
0=
#1215000
1#
1=
0q!
1o!
b11 i
b1001 h
0O!
1W!
0Q
1S
1/
1.
1-
1,
1+
1*
1)
1(
1a
0Y
10
0(
#1220000
0#
0=
#1225000
1#
1=
#1227000
0$
0>
#1230000
0#
0=
#1235000
1#
1=
b1001 8
b0 9
b1001 &
b0 '
0O
0N
0L
0K
0H
1G
0E
1D
0B
0A
#1237000
b1001 2
0%
0?
1R
#1240000
0#
0=
#1245000
1#
1=
0o!
0l!
0i!
0f!
0c!
0`!
0]!
0Z!
b0 i
b0 h
0W!
0V!
0U!
0T!
0S!
0R!
0Q!
0P!
0S
0n!
0k!
0h!
0e!
0b!
0_!
0\!
0Y!
00
0/
0.
0-
0,
0+
0*
0)
0a
0`
0_
0^
0]
0\
0[
0Z
b0 j
#1250000
0#
0=
#1255000
1#
1=
1%
1?
0R
b1 j
#1260000
0#
0=
#1265000
1#
1=
b1 i
1P
1~
1)!
b10 j
#1270000
0#
0=
#1275000
1#
1=
1*!
1!!
b10 i
1s
1p
0P
#1280000
0#
0=
#1285000
1#
1=
#1290000
0#
0=
#1295000
1#
1=
#1300000
0#
0=
#1305000
1#
1=
#1310000
0#
0=
#1315000
0%
1$
1#
1>
1Q
1T
0~
1#!
0)!
1V
1p!
0?
1=
1R
0*!
0!!
b0 i
b1 h
0s
0p
0Q
0T
0#!
0p!
0V
b0 j
#1320000
0#
0=
#1325000
1#
1=
b0 h
#1330000
0#
0=
#1335000
1#
1=
#1340000
0#
0=
#1345000
1#
1=
#1350000
0#
0=
#1355000
1#
1=
#1360000
0#
0=
#1365000
0$
1#
0>
1=
#1370000
0#
0=
#1375000
1#
1=
#1380000
0#
0=
#1385000
1#
1=
#1390000
0#
0=
#1395000
1#
1=
#1400000
0#
0=
#1405000
1#
1=
#1410000
0#
0=
#1415000
1%
1$
1#
1>
1?
1=
0R
b1 j
#1420000
0#
0=
#1425000
1#
1=
b1 i
1P
1~
1)!
b10 j
#1430000
0#
0=
#1435000
1#
1=
1*!
1!!
b10 i
1s
1p
1Q
0P
1T
0)!
0~
1#!
1V
1p!
#1440000
0#
0=
#1445000
1#
1=
1q!
1$!
b1 h
0!!
0*!
1O!
1q
0p
0s
1Y
1Y!
0#!
1&!
0T
0V
0p!
#1450000
0#
0=
#1455000
1#
1=
1'!
1Z!
b10 h
0$!
0q!
1r
1P!
0q
0O!
0&!
1)!
1Z
0Y
0Y!
1\!
#1460000
0#
0=
#1465000
1#
1=
1]!
1*!
b11 h
0Z!
0'!
1Q!
1s
0P!
0r
1[
0Z
1_!
0\!
1T
0)!
1V
1p!
#1470000
0#
0=
#1475000
1#
1=
1q!
1`!
b100 h
0*!
0]!
1O!
1R!
0s
0Q!
1\
0[
1Y
1Y!
0_!
1b!
0T
0V
0p!
#1480000
0#
0=
#1485000
1#
1=
1c!
1Z!
b101 h
0`!
0q!
1S!
1P!
0R!
0O!
1]
0\
1Z
0Y
1e!
0b!
0Y!
1\!
#1490000
0#
0=
#1495000
1#
1=
1]!
1f!
b110 h
0Z!
0c!
1Q!
1T!
0P!
0S!
1^
0]
1[
0Z
1_!
0\!
0e!
1h!
#1500000
0#
0=
#1505000
1#
1=
1i!
1`!
b111 h
0f!
0]!
1U!
1R!
0T!
0Q!
1_
0^
1\
0[
1k!
0h!
0_!
1b!
#1510000
0#
0=
#1515000
1#
1=
1c!
1l!
b1000 h
0`!
0i!
1S!
1V!
0R!
0U!
1`
0_
1]
0\
1e!
0b!
0k!
1n!
b11 j
