dual_port_ram/test_bench.vcd
$date
	Wed Apr  8 12:15:42 2026
$end
$version
	QuestaSim Version 2021.2_1
$end
$timescale
	1ns
$end

$scope module tb $end
$var reg 1 ! clk $end

$scope module dut $end
$var parameter 32 " W_LATENCY $end
$var parameter 32 # R_LATENCY $end
$var parameter 32 $ ADDR_WIDTH $end
$var parameter 32 % DATA_WIDTH $end
$var parameter 32 & LENGTH $end
$var wire 1 ' addra [3] $end
$var wire 1 ( addra [2] $end
$var wire 1 ) addra [1] $end
$var wire 1 * addra [0] $end
$var wire 1 + addrb [3] $end
$var wire 1 , addrb [2] $end
$var wire 1 - addrb [1] $end
$var wire 1 . addrb [0] $end
$var wire 1 / wea $end
$var wire 1 0 en $end
$var wire 1 1 rst $end
$var wire 1 2 clk $end
$var wire 1 3 dina [3] $end
$var wire 1 4 dina [2] $end
$var wire 1 5 dina [1] $end
$var wire 1 6 dina [0] $end
$var reg 4 7 douta [3:0] $end
$var reg 4 8 doutb [3:0] $end
$var reg 7 9 en_dina [6:0] $end
$var reg 7 : en_douta [6:0] $end
$var reg 7 ; en_doutb [6:0] $end

$scope begin mem_gen[15] $end
$var parameter 32 < i $end

$scope module block $end
$var parameter 32 = W_LATENCY $end
$var parameter 32 > R_LATENCY $end
$var wire 1 ? data_in [6] $end
$var wire 1 @ data_in [5] $end
$var wire 1 A data_in [4] $end
$var wire 1 B data_in [3] $end
$var wire 1 C data_in [2] $end
$var wire 1 D data_in [1] $end
$var wire 1 E data_in [0] $end
$var wire 1 F write_en $end
$var wire 1 2 clk $end
$var wire 1 1 rst $end
$var wire 1 0 en $end
$var reg 7 G data_out [6:0] $end
$var reg 7 H mem [6:0] $end
$var reg 1 I r_count $end
$var reg 1 J w_count $end
$upscope $end
$upscope $end

$scope begin mem_gen[14] $end
$var parameter 32 K i $end

$scope module block $end
$var parameter 32 L W_LATENCY $end
$var parameter 32 M R_LATENCY $end
$var wire 1 N data_in [6] $end
$var wire 1 O data_in [5] $end
$var wire 1 P data_in [4] $end
$var wire 1 Q data_in [3] $end
$var wire 1 R data_in [2] $end
$var wire 1 S data_in [1] $end
$var wire 1 T data_in [0] $end
$var wire 1 U write_en $end
$var wire 1 2 clk $end
$var wire 1 1 rst $end
$var wire 1 0 en $end
$var reg 7 V data_out [6:0] $end
$var reg 7 W mem [6:0] $end
$var reg 1 X r_count $end
$var reg 1 Y w_count $end
$upscope $end
$upscope $end

$scope begin mem_gen[13] $end
$var parameter 32 Z i $end

$scope module block $end
$var parameter 32 [ W_LATENCY $end
$var parameter 32 \ R_LATENCY $end
$var wire 1 ] data_in [6] $end
$var wire 1 ^ data_in [5] $end
$var wire 1 _ data_in [4] $end
$var wire 1 ` data_in [3] $end
$var wire 1 a data_in [2] $end
$var wire 1 b data_in [1] $end
$var wire 1 c data_in [0] $end
$var wire 1 d write_en $end
$var wire 1 2 clk $end
$var wire 1 1 rst $end
$var wire 1 0 en $end
$var reg 7 e data_out [6:0] $end
$var reg 7 f mem [6:0] $end
$var reg 1 g r_count $end
$var reg 1 h w_count $end
$upscope $end
$upscope $end

$scope begin mem_gen[12] $end
$var parameter 32 i i $end

$scope module block $end
$var parameter 32 j W_LATENCY $end
$var parameter 32 k R_LATENCY $end
$var wire 1 l data_in [6] $end
$var wire 1 m data_in [5] $end
$var wire 1 n data_in [4] $end
$var wire 1 o data_in [3] $end
$var wire 1 p data_in [2] $end
$var wire 1 q data_in [1] $end
$var wire 1 r data_in [0] $end
$var wire 1 s write_en $end
$var wire 1 2 clk $end
$var wire 1 1 rst $end
$var wire 1 0 en $end
$var reg 7 t data_out [6:0] $end
$var reg 7 u mem [6:0] $end
$var reg 1 v r_count $end
$var reg 1 w w_count $end
$upscope $end
$upscope $end

$scope begin mem_gen[11] $end
$var parameter 32 x i $end

$scope module block $end
$var parameter 32 y W_LATENCY $end
$var parameter 32 z R_LATENCY $end
$var wire 1 { data_in [6] $end
$var wire 1 | data_in [5] $end
$var wire 1 } data_in [4] $end
$var wire 1 ~ data_in [3] $end
$var wire 1 !! data_in [2] $end
$var wire 1 "! data_in [1] $end
$var wire 1 #! data_in [0] $end
$var wire 1 $! write_en $end
$var wire 1 2 clk $end
$var wire 1 1 rst $end
$var wire 1 0 en $end
$var reg 7 %! data_out [6:0] $end
$var reg 7 &! mem [6:0] $end
$var reg 1 '! r_count $end
$var reg 1 (! w_count $end
$upscope $end
$upscope $end

$scope begin mem_gen[10] $end
$var parameter 32 )! i $end

$scope module block $end
$var parameter 32 *! W_LATENCY $end
$var parameter 32 +! R_LATENCY $end
$var wire 1 ,! data_in [6] $end
$var wire 1 -! data_in [5] $end
$var wire 1 .! data_in [4] $end
$var wire 1 /! data_in [3] $end
$var wire 1 0! data_in [2] $end
$var wire 1 1! data_in [1] $end
$var wire 1 2! data_in [0] $end
$var wire 1 3! write_en $end
$var wire 1 2 clk $end
$var wire 1 1 rst $end
$var wire 1 0 en $end
$var reg 7 4! data_out [6:0] $end
$var reg 7 5! mem [6:0] $end
$var reg 1 6! r_count $end
$var reg 1 7! w_count $end
$upscope $end
$upscope $end

$scope begin mem_gen[9] $end
$var parameter 32 8! i $end

$scope module block $end
$var parameter 32 9! W_LATENCY $end
$var parameter 32 :! R_LATENCY $end
$var wire 1 ;! data_in [6] $end
$var wire 1 <! data_in [5] $end
$var wire 1 =! data_in [4] $end
$var wire 1 >! data_in [3] $end
$var wire 1 ?! data_in [2] $end
$var wire 1 @! data_in [1] $end
$var wire 1 A! data_in [0] $end
$var wire 1 B! write_en $end
$var wire 1 2 clk $end
$var wire 1 1 rst $end
$var wire 1 0 en $end
$var reg 7 C! data_out [6:0] $end
$var reg 7 D! mem [6:0] $end
$var reg 1 E! r_count $end
$var reg 1 F! w_count $end
$upscope $end
$upscope $end

$scope begin mem_gen[8] $end
$var parameter 32 G! i $end

$scope module block $end
$var parameter 32 H! W_LATENCY $end
$var parameter 32 I! R_LATENCY $end
$var wire 1 J! data_in [6] $end
$var wire 1 K! data_in [5] $end
$var wire 1 L! data_in [4] $end
$var wire 1 M! data_in [3] $end
$var wire 1 N! data_in [2] $end
$var wire 1 O! data_in [1] $end
$var wire 1 P! data_in [0] $end
$var wire 1 Q! write_en $end
$var wire 1 2 clk $end
$var wire 1 1 rst $end
$var wire 1 0 en $end
$var reg 7 R! data_out [6:0] $end
$var reg 7 S! mem [6:0] $end
$var reg 1 T! r_count $end
$var reg 1 U! w_count $end
$upscope $end
$upscope $end

$scope begin mem_gen[7] $end
$var parameter 32 V! i $end

$scope module block $end
$var parameter 32 W! W_LATENCY $end
$var parameter 32 X! R_LATENCY $end
$var wire 1 Y! data_in [6] $end
$var wire 1 Z! data_in [5] $end
$var wire 1 [! data_in [4] $end
$var wire 1 \! data_in [3] $end
$var wire 1 ]! data_in [2] $end
$var wire 1 ^! data_in [1] $end
$var wire 1 _! data_in [0] $end
$var wire 1 `! write_en $end
$var wire 1 2 clk $end
$var wire 1 1 rst $end
$var wire 1 0 en $end
$var reg 7 a! data_out [6:0] $end
$var reg 7 b! mem [6:0] $end
$var reg 1 c! r_count $end
$var reg 1 d! w_count $end
$upscope $end
$upscope $end

$scope begin mem_gen[6] $end
$var parameter 32 e! i $end

$scope module block $end
$var parameter 32 f! W_LATENCY $end
$var parameter 32 g! R_LATENCY $end
$var wire 1 h! data_in [6] $end
$var wire 1 i! data_in [5] $end
$var wire 1 j! data_in [4] $end
$var wire 1 k! data_in [3] $end
$var wire 1 l! data_in [2] $end
$var wire 1 m! data_in [1] $end
$var wire 1 n! data_in [0] $end
$var wire 1 o! write_en $end
$var wire 1 2 clk $end
$var wire 1 1 rst $end
$var wire 1 0 en $end
$var reg 7 p! data_out [6:0] $end
$var reg 7 q! mem [6:0] $end
$var reg 1 r! r_count $end
$var reg 1 s! w_count $end
$upscope $end
$upscope $end

$scope begin mem_gen[5] $end
$var parameter 32 t! i $end

$scope module block $end
$var parameter 32 u! W_LATENCY $end
$var parameter 32 v! R_LATENCY $end
$var wire 1 w! data_in [6] $end
$var wire 1 x! data_in [5] $end
$var wire 1 y! data_in [4] $end
$var wire 1 z! data_in [3] $end
$var wire 1 {! data_in [2] $end
$var wire 1 |! data_in [1] $end
$var wire 1 }! data_in [0] $end
$var wire 1 ~! write_en $end
$var wire 1 2 clk $end
$var wire 1 1 rst $end
$var wire 1 0 en $end
$var reg 7 !" data_out [6:0] $end
$var reg 7 "" mem [6:0] $end
$var reg 1 #" r_count $end
$var reg 1 $" w_count $end
$upscope $end
$upscope $end

$scope begin mem_gen[4] $end
$var parameter 32 %" i $end

$scope module block $end
$var parameter 32 &" W_LATENCY $end
$var parameter 32 '" R_LATENCY $end
$var wire 1 (" data_in [6] $end
$var wire 1 )" data_in [5] $end
$var wire 1 *" data_in [4] $end
$var wire 1 +" data_in [3] $end
$var wire 1 ," data_in [2] $end
$var wire 1 -" data_in [1] $end
$var wire 1 ." data_in [0] $end
$var wire 1 /" write_en $end
$var wire 1 2 clk $end
$var wire 1 1 rst $end
$var wire 1 0 en $end
$var reg 7 0" data_out [6:0] $end
$var reg 7 1" mem [6:0] $end
$var reg 1 2" r_count $end
$var reg 1 3" w_count $end
$upscope $end
$upscope $end

$scope begin mem_gen[3] $end
$var parameter 32 4" i $end

$scope module block $end
$var parameter 32 5" W_LATENCY $end
$var parameter 32 6" R_LATENCY $end
$var wire 1 7" data_in [6] $end
$var wire 1 8" data_in [5] $end
$var wire 1 9" data_in [4] $end
$var wire 1 :" data_in [3] $end
$var wire 1 ;" data_in [2] $end
$var wire 1 <" data_in [1] $end
$var wire 1 =" data_in [0] $end
$var wire 1 >" write_en $end
$var wire 1 2 clk $end
$var wire 1 1 rst $end
$var wire 1 0 en $end
$var reg 7 ?" data_out [6:0] $end
$var reg 7 @" mem [6:0] $end
$var reg 1 A" r_count $end
$var reg 1 B" w_count $end
$upscope $end
$upscope $end

$scope begin mem_gen[2] $end
$var parameter 32 C" i $end

$scope module block $end
$var parameter 32 D" W_LATENCY $end
$var parameter 32 E" R_LATENCY $end
$var wire 1 F" data_in [6] $end
$var wire 1 G" data_in [5] $end
$var wire 1 H" data_in [4] $end
$var wire 1 I" data_in [3] $end
$var wire 1 J" data_in [2] $end
$var wire 1 K" data_in [1] $end
$var wire 1 L" data_in [0] $end
$var wire 1 M" write_en $end
$var wire 1 2 clk $end
$var wire 1 1 rst $end
$var wire 1 0 en $end
$var reg 7 N" data_out [6:0] $end
$var reg 7 O" mem [6:0] $end
$var reg 1 P" r_count $end
$var reg 1 Q" w_count $end
$upscope $end
$upscope $end

$scope begin mem_gen[1] $end
$var parameter 32 R" i $end

$scope module block $end
$var parameter 32 S" W_LATENCY $end
$var parameter 32 T" R_LATENCY $end
$var wire 1 U" data_in [6] $end
$var wire 1 V" data_in [5] $end
$var wire 1 W" data_in [4] $end
$var wire 1 X" data_in [3] $end
$var wire 1 Y" data_in [2] $end
$var wire 1 Z" data_in [1] $end
$var wire 1 [" data_in [0] $end
$var wire 1 \" write_en $end
$var wire 1 2 clk $end
$var wire 1 1 rst $end
$var wire 1 0 en $end
$var reg 7 ]" data_out [6:0] $end
$var reg 7 ^" mem [6:0] $end
$var reg 1 _" r_count $end
$var reg 1 `" w_count $end
$upscope $end
$upscope $end

$scope begin mem_gen[0] $end
$var parameter 32 a" i $end

$scope module block $end
$var parameter 32 b" W_LATENCY $end
$var parameter 32 c" R_LATENCY $end
$var wire 1 d" data_in [6] $end
$var wire 1 e" data_in [5] $end
$var wire 1 f" data_in [4] $end
$var wire 1 g" data_in [3] $end
$var wire 1 h" data_in [2] $end
$var wire 1 i" data_in [1] $end
$var wire 1 j" data_in [0] $end
$var wire 1 k" write_en $end
$var wire 1 2 clk $end
$var wire 1 1 rst $end
$var wire 1 0 en $end
$var reg 7 l" data_out [6:0] $end
$var reg 7 m" mem [6:0] $end
$var reg 1 n" r_count $end
$var reg 1 o" w_count $end
$upscope $end
$upscope $end

$scope module encoder $end
$var wire 1 3 data_in [3] $end
$var wire 1 4 data_in [2] $end
$var wire 1 5 data_in [1] $end
$var wire 1 6 data_in [0] $end
$var reg 7 p" e_code [6:0] $end
$var reg 1 q" p1 $end
$var reg 1 r" p2 $end
$var reg 1 s" p4 $end
$upscope $end

$scope module decoder_a $end
$var wire 1 t" e_code [6] $end
$var wire 1 u" e_code [5] $end
$var wire 1 v" e_code [4] $end
$var wire 1 w" e_code [3] $end
$var wire 1 x" e_code [2] $end
$var wire 1 y" e_code [1] $end
$var wire 1 z" e_code [0] $end
$var reg 4 {" data_out [3:0] $end
$var reg 1 |" error $end
$var reg 1 }" p1 $end
$var reg 1 ~" p2 $end
$var reg 1 !# p4 $end
$var reg 3 "# syndrome [2:0] $end
$var reg 7 ## corrected_code [6:0] $end
$upscope $end

$scope module decoder_b $end
$var wire 1 $# e_code [6] $end
$var wire 1 %# e_code [5] $end
$var wire 1 &# e_code [4] $end
$var wire 1 '# e_code [3] $end
$var wire 1 (# e_code [2] $end
$var wire 1 )# e_code [1] $end
$var wire 1 *# e_code [0] $end
$var reg 4 +# data_out [3:0] $end
$var reg 1 ,# error $end
$var reg 1 -# p1 $end
$var reg 1 .# p2 $end
$var reg 1 /# p4 $end
$var reg 3 0# syndrome [2:0] $end
$var reg 7 1# corrected_code [6:0] $end
$upscope $end
$upscope $end
$upscope $end

$scope begin testbench_sv_unit $end
$upscope $end

$scope begin std $end
$upscope $end
$enddefinitions $end
#0
$dumpvars
0!
bx 7
bx 8
bx 9
bx :
bx ;
bx p"
xq"
xr"
xs"
bx {"
x|"
x}"
x~"
x!#
bx "#
bx ##
bx +#
x,#
x-#
x.#
x/#
bx 0#
bx 1#
bx l"
bx m"
xn"
xo"
bx ]"
bx ^"
x_"
x`"
bx N"
bx O"
xP"
xQ"
bx ?"
bx @"
xA"
xB"
bx 0"
bx 1"
x2"
x3"
bx !"
bx ""
x#"
x$"
bx p!
bx q!
xr!
xs!
bx a!
bx b!
xc!
xd!
bx R!
bx S!
xT!
xU!
bx C!
bx D!
xE!
xF!
bx 4!
bx 5!
x6!
x7!
bx %!
bx &!
x'!
x(!
bx t
bx u
xv
xw
bx e
bx f
xg
xh
bx V
bx W
xX
xY
bx G
bx H
xI
xJ
b0 "
b0 #
b100 $
b100 %
b10000 &
b0 a"
b0 b"
b0 c"
b1 R"
b0 S"
b0 T"
b10 C"
b0 D"
b0 E"
b11 4"
b0 5"
b0 6"
b100 %"
b0 &"
b0 '"
b101 t!
b0 u!
b0 v!
b110 e!
b0 f!
b0 g!
b111 V!
b0 W!
b0 X!
b1000 G!
b0 H!
b0 I!
b1001 8!
b0 9!
b0 :!
b1010 )!
b0 *!
b0 +!
b1011 x
b0 y
b0 z
b1100 i
b0 j
b0 k
b1101 Z
b0 [
b0 \
b1110 K
b0 L
b0 M
b1111 <
b0 =
b0 >
x6
x5
x4
x3
02
11
x0
x/
x.
x-
x,
x+
x*
x)
x(
x'
x*#
x)#
x(#
x'#
x&#
x%#
x$#
xz"
xy"
xx"
xw"
xv"
xu"
xt"
xk"
xj"
xi"
xh"
xg"
xf"
xe"
xd"
x\"
x["
xZ"
xY"
xX"
xW"
xV"
xU"
xM"
xL"
xK"
xJ"
xI"
xH"
xG"
xF"
x>"
x="
x<"
x;"
x:"
x9"
x8"
x7"
x/"
x."
x-"
x,"
x+"
x*"
x)"
x("
x~!
x}!
x|!
x{!
xz!
xy!
xx!
xw!
xo!
xn!
xm!
xl!
xk!
xj!
xi!
xh!
x`!
x_!
x^!
x]!
x\!
x[!
xZ!
xY!
xQ!
xP!
xO!
xN!
xM!
xL!
xK!
xJ!
xB!
xA!
x@!
x?!
x>!
x=!
x<!
x;!
x3!
x2!
x1!
x0!
x/!
x.!
x-!
x,!
x$!
x#!
x"!
x!!
x~
x}
x|
x{
xs
xr
xq
xp
xo
xn
xm
xl
xd
xc
xb
xa
x`
x_
x^
x]
xU
xT
xS
xR
xQ
xP
xO
xN
xF
xE
xD
xC
xB
xA
x@
x?
$end
#5
1!
12
0n"
0o"
0_"
0`"
0P"
0Q"
0A"
0B"
02"
03"
0#"
0$"
0r!
0s!
0c!
0d!
0T!
0U!
0E!
0F!
06!
07!
0'!
0(!
0v
0w
0g
0h
0X
0Y
0I
0J
#10
0!
01
02
#15
1!
12
0.
1-
1,
0+
0*
1)
0(
1'
0/
10
11
0F
0U
0d
0s
0$!
03!
0B!
0Q!
0`!
0o!
0~!
0/"
0>"
0M"
0\"
0k"
06
15
04
03
1q"
0r"
1s"
b11001 p"
b11001 9
1j"
0i"
0h"
1g"
1f"
0e"
0d"
1["
0Z"
0Y"
1X"
1W"
0V"
0U"
1L"
0K"
0J"
1I"
1H"
0G"
0F"
1="
0<"
0;"
1:"
19"
08"
07"
1."
0-"
0,"
1+"
1*"
0)"
0("
1}!
0|!
0{!
1z!
1y!
0x!
0w!
1n!
0m!
0l!
1k!
1j!
0i!
0h!
1_!
0^!
0]!
1\!
1[!
0Z!
0Y!
1P!
0O!
0N!
1M!
1L!
0K!
0J!
1A!
0@!
0?!
1>!
1=!
0<!
0;!
12!
01!
00!
1/!
1.!
0-!
0,!
1#!
0"!
0!!
1~
1}
0|
0{
1r
0q
0p
1o
1n
0m
0l
1c
0b
0a
1`
1_
0^
0]
1T
0S
0R
1Q
1P
0O
0N
1E
0D
0C
1B
1A
0@
0?
#20
0!
02
#25
1!
12
1.
1*
0)
01
05
13
1r"
b1001011 p"
b1001011 9
1i"
0f"
1d"
1Z"
0W"
1U"
1K"
0H"
1F"
1<"
09"
17"
1-"
0*"
1("
1|!
0y!
1w!
1m!
0j!
1h!
1^!
0[!
1Y!
1O!
0L!
1J!
1@!
0=!
1;!
11!
0.!
1,!
1"!
0}
1{
1q
0n
1l
1b
0_
1]
1S
0P
1N
1D
0A
1?
#30
0!
02
#35
1!
12
1+
0'
1/
00
1\"
14
0r"
0s"
b1100001 p"
b1100001 9
0i"
0g"
1e"
0Z"
0X"
1V"
0K"
0I"
1G"
0<"
0:"
18"
0-"
0+"
1)"
0|!
0z!
1x!
0m!
0k!
1i!
0^!
0\!
1Z!
0O!
0M!
1K!
0@!
0>!
1<!
01!
0/!
1-!
0"!
0~
1|
0q
0o
1m
0b
0`
1^
0S
0Q
1O
0D
0B
1@
#40
0!
02
#45
1!
12
0.
0*
10
0\"
1k"
16
03
1s"
b101101 p"
b101101 9
1h"
1g"
0d"
1Y"
1X"
0U"
1J"
1I"
0F"
1;"
1:"
07"
1,"
1+"
0("
1{!
1z!
0w!
1l!
1k!
0h!
1]!
1\!
0Y!
1N!
1M!
0J!
1?!
1>!
0;!
10!
1/!
0,!
1!!
1~
0{
1p
1o
0l
1a
1`
0]
1R
1Q
0N
1C
1B
0?
#50
0!
02
#55
1!
12
b101101 m"
1.
0,
1)
1(
1'
0/
0k"
06
15
04
b11001 p"
b11001 9
0h"
1f"
0e"
0Y"
1W"
0V"
0J"
1H"
0G"
0;"
19"
08"
0,"
1*"
0)"
0{!
1y!
0x!
0l!
1j!
0i!
0]!
1[!
0Z!
0N!
1L!
0K!
0?!
1=!
0<!
00!
1.!
0-!
0!!
1}
0|
0p
1n
0m
0a
1_
0^
0R
1P
0O
0C
1A
0@
#60
0!
02
#65
1!
12
b101101 l"
0.
1,
1*
1/
1F
14
1r"
0s"
b110011 p"
b110011 9
1i"
0g"
1e"
1Z"
0X"
1V"
1K"
0I"
1G"
1<"
0:"
18"
1-"
0+"
1)"
1|!
0z!
1x!
1m!
0k!
1i!
1^!
0\!
1Z!
1O!
0M!
1K!
1@!
0>!
1<!
11!
0/!
1-!
1"!
0~
1|
1q
0o
1m
1b
0`
1^
1S
0Q
1O
1D
0B
1@
#70
0!
02
#75
1!
12
b110011 H
1.
0-
0*
0'
0/
0F
16
04
0q"
1s"
b11110 p"
b11110 9
0j"
1h"
1g"
0e"
0["
1Y"
1X"
0V"
0L"
1J"
1I"
0G"
0="
1;"
1:"
08"
0."
1,"
1+"
0)"
0}!
1{!
1z!
0x!
0n!
1l!
1k!
0i!
0_!
1]!
1\!
0Z!
0P!
1N!
1M!
0K!
0A!
1?!
1>!
0<!
02!
10!
1/!
0-!
0#!
1!!
1~
0|
0r
1p
1o
0m
0c
1a
1`
0^
0T
1R
1Q
0O
0E
1C
1B
0@
#80
0!
02
#85
1!
12
b110011 G
0,
0+
0)
1'
06
05
14
13
1q"
0r"
0s"
b1100001 p"
b1100001 9
1j"
0i"
0h"
0g"
0f"
1e"
1d"
1["
0Z"
0Y"
0X"
0W"
1V"
1U"
1L"
0K"
0J"
0I"
0H"
1G"
1F"
1="
0<"
0;"
0:"
09"
18"
17"
1."
0-"
0,"
0+"
0*"
1)"
1("
1}!
0|!
0{!
0z!
0y!
1x!
1w!
1n!
0m!
0l!
0k!
0j!
1i!
1h!
1_!
0^!
0]!
0\!
0[!
1Z!
1Y!
1P!
0O!
0N!
0M!
0L!
1K!
1J!
1A!
0@!
0?!
0>!
0=!
1<!
1;!
12!
01!
00!
0/!
0.!
1-!
1,!
1#!
0"!
0!!
0~
0}
1|
1{
1r
0q
0p
0o
0n
1m
1l
1c
0b
0a
0`
0_
1^
1]
1T
0S
0R
0Q
0P
1O
1N
1E
0D
0C
0B
0A
1@
1?
#90
0!
02
#95
1!
12
1,
1*
1)
0(
0'
1/
1>"
15
04
03
1s"
b11001 p"
b11001 9
1g"
1f"
0e"
0d"
1X"
1W"
0V"
0U"
1I"
1H"
0G"
0F"
1:"
19"
08"
07"
1+"
1*"
0)"
0("
1z!
1y!
0x!
0w!
1k!
1j!
0i!
0h!
1\!
1[!
0Z!
0Y!
1M!
1L!
0K!
0J!
1>!
1=!
0<!
0;!
1/!
1.!
0-!
0,!
1~
1}
0|
0{
1o
1n
0m
0l
1`
1_
0^
0]
1Q
1P
0O
0N
1B
1A
0@
0?
#100
0!
02
#105
1!
12
b11001 @"
0.
1-
0,
1+
0)
1(
1~!
0>"
16
14
0q"
0s"
b110100 p"
b110100 9
0j"
1h"
0g"
1e"
0["
1Y"
0X"
1V"
0L"
1J"
0I"
1G"
0="
1;"
0:"
18"
0."
1,"
0+"
1)"
0}!
1{!
0z!
1x!
0n!
1l!
0k!
1i!
0_!
1]!
0\!
1Z!
0P!
1N!
0M!
1K!
0A!
1?!
0>!
1<!
02!
10!
0/!
1-!
0#!
1!!
0~
1|
0r
1p
0o
1m
0c
1a
0`
1^
0T
1R
0Q
1O
0E
1C
0B
1@
#110
0!
02
#115
1!
12
b110100 ""
b11001 ?"
1,
0*
0(
b101101 :
0~!
1k"
1z"
0y"
1x"
1w"
0v"
1u"
0t"
04
1r"
1s"
b11110 p"
0}"
0~"
0!#
b101101 ##
b0 "#
b101 {"
0|"
b101 7
b11110 9
1i"
1g"
0e"
1Z"
1X"
0V"
1K"
1I"
0G"
1<"
1:"
08"
1-"
1+"
0)"
1|!
1z!
0x!
1m!
1k!
0i!
1^!
1\!
0Z!
1O!
1M!
0K!
1@!
1>!
0<!
11!
1/!
0-!
1"!
1~
0|
1q
1o
0m
1b
1`
0^
1S
1Q
0O
1D
1B
0@
#120
0!
02
#125
1!
12
b11110 m"
b110100 !"
0-
0+
1*
0/
bx :
0k"
xz"
xy"
xx"
xw"
xv"
xu"
xt"
06
14
1q"
0s"
b110011 p"
x}"
x~"
x!#
bx ##
bx "#
bx {"
x|"
bx 7
b110011 9
1j"
0h"
0g"
1e"
1["
0Y"
0X"
1V"
1L"
0J"
0I"
1G"
1="
0;"
0:"
18"
1."
0,"
0+"
1)"
1}!
0{!
0z!
1x!
1n!
0l!
0k!
1i!
1_!
0]!
0\!
1Z!
1P!
0N!
0M!
1K!
1A!
0?!
0>!
1<!
12!
00!
0/!
1-!
1#!
0!!
0~
1|
1r
0p
0o
1m
1c
0a
0`
1^
1T
0R
0Q
1O
1E
0C
0B
1@
#130
0!
02
#135
1!
12
b11110 l"
0,
1+
1'
16
05
04
b111 p"
b111 9
1h"
0f"
0e"
1Y"
0W"
0V"
1J"
0H"
0G"
1;"
09"
08"
1,"
0*"
0)"
1{!
0y!
0x!
1l!
0j!
0i!
1]!
0[!
0Z!
1N!
0L!
0K!
1?!
0=!
0<!
10!
0.!
0-!
1!!
0}
0|
1p
0n
0m
1a
0_
0^
1R
0P
0O
1C
0A
0@
#140
0!
02
#145
1!
12
1-
0*
1(
0'
1/
1/"
15
0q"
1s"
b11110 p"
b11110 9
0j"
1g"
1f"
0["
1X"
1W"
0L"
1I"
1H"
0="
1:"
19"
0."
1+"
1*"
0}!
1z!
1y!
0n!
1k!
1j!
0_!
1\!
1[!
0P!
1M!
1L!
0A!
1>!
1=!
02!
1/!
1.!
0#!
1~
1}
0r
1o
1n
0c
1`
1_
0T
1Q
1P
0E
1B
1A
#150
0!
02
#155
1!
12
b11110 1"
1.
1)
0(
0/"
1M"
06
14
13
0r"
b1111000 p"
b1111000 9
0i"
0h"
1e"
1d"
0Z"
0Y"
1V"
1U"
0K"
0J"
1G"
1F"
0<"
0;"
18"
17"
0-"
0,"
1)"
1("
0|!
0{!
1x!
1w!
0m!
0l!
1i!
1h!
0^!
0]!
1Z!
1Y!
0O!
0N!
1K!
1J!
0@!
0?!
1<!
1;!
01!
00!
1-!
1,!
0"!
0!!
1|
1{
0q
0p
1m
1l
0b
0a
1^
1]
0S
0R
1O
1N
0D
0C
1@
1?
#160
0!
02
#165
1!
12
b1111000 O"
b11110 0"
1,
0+
1*
1(
1'
00
b110011 :
1F
0M"
1z"
1y"
0x"
0w"
1v"
1u"
0t"
05
03
1r"
b101010 p"
0}"
0~"
0!#
b110011 ##
b0 "#
b110 {"
0|"
b110 7
b101010 9
1i"
0f"
0d"
1Z"
0W"
0U"
1K"
0H"
0F"
1<"
09"
07"
1-"
0*"
0("
1|!
0y!
0w!
1m!
0j!
0h!
1^!
0[!
0Y!
1O!
0L!
0J!
1@!
0=!
0;!
11!
0.!
0,!
1"!
0}
0{
1q
0n
0l
1b
0_
0]
1S
0P
0N
1D
0A
0?
#170
0!
02
#175
1!
12
0,
0*
0(
10
bx :
b11001 ;
0F
13!
1*#
0)#
0(#
1'#
1&#
0%#
0$#
xz"
xy"
xx"
xw"
xv"
xu"
xt"
15
04
13
0s"
b1010010 p"
x}"
x~"
x!#
bx ##
bx "#
bx {"
x|"
0-#
0.#
0/#
b11001 1#
b0 0#
b10 +#
0,#
b10 8
bx 7
b1010010 9
0g"
1f"
0e"
1d"
0X"
1W"
0V"
1U"
0I"
1H"
0G"
1F"
0:"
19"
08"
17"
0+"
1*"
0)"
1("
0z!
1y!
0x!
1w!
0k!
1j!
0i!
1h!
0\!
1[!
0Z!
1Y!
0M!
1L!
0K!
1J!
0>!
1=!
0<!
1;!
0/!
1.!
0-!
1,!
0~
1}
0|
1{
0o
1n
0m
1l
0`
1_
0^
1]
0Q
1P
0O
1N
0B
1A
0@
1?
#180
0!
02
#185
1!
12
b1111000 N"
b1010010 5!
0.
1+
1*
0)
0'
0/
00
bx ;
03!
x*#
x)#
x(#
x'#
x&#
x%#
x$#
16
03
1s"
b11110 p"
x-#
x.#
x/#
bx 1#
bx 0#
bx +#
x,#
bx 8
b11110 9
1h"
1g"
0d"
1Y"
1X"
0U"
1J"
1I"
0F"
1;"
1:"
07"
1,"
1+"
0("
1{!
1z!
0w!
1l!
1k!
0h!
1]!
1\!
0Y!
1N!
1M!
0J!
1?!
1>!
0;!
10!
1/!
0,!
1!!
1~
0{
1p
1o
0l
1a
1`
0]
1R
1Q
0N
1C
1B
0?
#190
0!
02
#195
1!
12
0-
1,
0*
1/
10
b11110 :
1k"
0z"
1y"
1x"
1w"
1v"
0u"
0t"
06
05
13
1q"
b1001011 p"
0}"
0~"
0!#
b11110 ##
b0 "#
b11 {"
0|"
b11 7
b1001011 9
1j"
0h"
0f"
1d"
1["
0Y"
0W"
1U"
1L"
0J"
0H"
1F"
1="
0;"
09"
17"
1."
0,"
0*"
1("
1}!
0{!
0y!
1w!
1n!
0l!
0j!
1h!
1_!
0]!
0[!
1Y!
1P!
0N!
0L!
1J!
1A!
0?!
0=!
1;!
12!
00!
0.!
1,!
1#!
0!!
0}
1{
1r
0p
0n
1l
1c
0a
0_
1]
1T
0R
0P
1N
1E
0C
0A
1?
#200
0!
02
#205
1!
12
b1001011 m"
b1010010 4!
1-
0,
1(
b1010010 ;
1/"
0k"
0*#
1)#
0(#
0'#
1&#
0%#
1$#
14
0r"
0s"
b1100001 p"
0-#
0.#
0/#
b1010010 1#
b0 0#
b1010 +#
0,#
b1010 8
b1100001 9
0i"
0g"
1e"
0Z"
0X"
1V"
0K"
0I"
1G"
0<"
0:"
18"
0-"
0+"
1)"
0|!
0z!
1x!
0m!
0k!
1i!
0^!
0\!
1Z!
0O!
0M!
1K!
0@!
0>!
1<!
01!
0/!
1-!
0"!
0~
1|
0q
0o
1m
0b
0`
1^
0S
0Q
1O
0D
0B
1@
#210
0!
02
#215
1!
12
b1100001 1"
b1001011 l"
1.
1,
0+
1)
0(
1'
b1010010 :
bx ;
13!
0/"
x*#
x)#
x(#
x'#
x&#
x%#
x$#
0x"
0w"
1t"
16
0q"
1r"
b1100110 p"
b1010010 ##
b1010 {"
x-#
x.#
x/#
bx 1#
bx 0#
bx +#
x,#
bx 8
b1010 7
b1100110 9
0j"
1i"
1h"
0["
1Z"
1Y"
0L"
1K"
1J"
0="
1<"
1;"
0."
1-"
1,"
0}!
1|!
1{!
0n!
1m!
1l!
0_!
1^!
1]!
0P!
1O!
1N!
0A!
1@!
1?!
02!
11!
10!
0#!
1"!
1!!
0r
1q
1p
0c
1b
1a
0T
1S
1R
0E
1D
1C
#220
0!
02
