de_skew/src/test_bench.vcd
$date
	Fri Apr  3 17:57:52 2026
$end
$version
	QuestaSim Version 2021.2_1
$end
$timescale
	1ns
$end

$scope module tb $end
$var reg 1 ! clk $end

$scope module dut $end
$var parameter 2 " IDLE $end
$var parameter 2 # FIND $end
$var parameter 2 $ ALIGNED $end
$var wire 1 % i_clk $end
$var wire 1 & reset $end
$var wire 1 ' i_stream1 [3] $end
$var wire 1 ( i_stream1 [2] $end
$var wire 1 ) i_stream1 [1] $end
$var wire 1 * i_stream1 [0] $end
$var wire 1 + i_stream2 [3] $end
$var wire 1 , i_stream2 [2] $end
$var wire 1 - i_stream2 [1] $end
$var wire 1 . i_stream2 [0] $end
$var wire 1 / o_stream [7] $end
$var wire 1 0 o_stream [6] $end
$var wire 1 1 o_stream [5] $end
$var wire 1 2 o_stream [4] $end
$var wire 1 3 o_stream [3] $end
$var wire 1 4 o_stream [2] $end
$var wire 1 5 o_stream [1] $end
$var wire 1 6 o_stream [0] $end
$var wire 1 7 o_aligned $end
$var reg 3 8 c [2:0] $end
$var reg 12 9 fifo1 [11:0] $end
$var reg 12 : fifo2 [11:0] $end
$var reg 8 ; out_stream [7:0] $end
$var reg 2 < state [1:0] $end
$var reg 2 = next_state [1:0] $end
$var reg 2 > LSB_ind [1:0] $end
$upscope $end
$upscope $end

$scope begin testbench_sv_unit $end
$upscope $end

$scope begin std $end
$upscope $end
$enddefinitions $end
#0
$dumpvars
0!
b0 8
bx 9
bx :
bx ;
bx <
bx =
bx >
b0 "
b1 #
b10 $
x.
x-
x,
x+
x*
x)
x(
x'
1&
0%
x6
x5
x4
x3
x2
x1
x0
x/
x7
$end
#5
1!
1%
b0 <
b0 >
b0 9
b0 :
07
06
05
04
03
02
01
00
0/
0&
b0 =
#10
0!
0%
#15
1!
1%
bx00000000 9
bx00000000 :
#20
0!
0%
#25
1!
1%
bx0000 9
bx0000 :
0.
1-
0,
0+
0*
1)
0(
1'
b1 =
#30
0!
0%
#35
1!
1%
b1 <
b1010xxxxxxxx 9
b10xxxxxxxx :
b1 >
0-
1,
1*
0'
#40
0!
0%
#45
1!
1%
b111010xxxx 9
b1000010xxxx :
b1 8
1-
0,
1+
0*
1(
1'
b10 =
#50
0!
0%
#55
1!
1%
b10 <
b111000111010 9
b101001000010 :
b10 8
17
x6
x5
x4
x3
x2
x1
x0
x/
1,
0)
0'
b10101010 ;
06
15
04
13
02
11
00
1/
#60
0!
0%
#65
1!
1%
b10011100011 9
b111010100100 :
1.
0-
0+
1*
0(
1'
b11100011 ;
16
03
10
#70
0!
0%
#75
1!
1%
b100101001110 9
b10111101010 :
0.
0,
0*
1)
0'
b1011110 ;
06
14
13
12
01
0/
#80
0!
0%
#85
1!
1%
b1010010100 9
b1011110 :
1.
1,
1+
1*
0)
1'
b100 ;
05
03
02
00
#90
0!
0%
#95
1!
1%
b100100101001 9
b110100000101 :
0.
0,
1(
b11011001 ;
16
04
13
12
10
1/
#100
0!
0%
#105
1!
1%
b110110010010 9
b100011010000 :
1.
1-
1,
0+
0(
0'
b10000010 ;
06
15
03
02
00
#110
0!
0%
#115
1!
1%
b111011001 9
b11110001101 :
0,
0*
1)
1'
b1111001 ;
16
05
13
12
11
10
0/
#120
0!
0%
#125
1!
1%
b101000011101 9
b1101111000 :
0-
1,
0'
b111101 ;
14
00
#130
0!
0%
#135
1!
1%
b1010100001 9
b10100110111 :
1+
1*
1(
b1010001 ;
04
03
01
10
#140
0!
0%
#145
1!
1%
b11100101010 9
b110101010011 :
0.
0+
0)
b11011010 ;
06
15
13
1/
#150
0!
0%
#155
1!
1%
b10101110010 9
b10011010101 :
1&
0,
0*
0(
b1000010 ;
03
02
0/
#160
0!
0%
#165
1!
1%
b0 <
b0 8
b0 >
b0 9
b0 :
07
05
00
0&
1-
1+
1*
1'
b0 =
b1 =
#170
0!
0%
#175
1!
1%
b1 <
b100100000000 9
b101000000000 :
b10 >
1,
0+
0*
1)
0'
#180
0!
0%
#185
1!
1%
b1010010000 9
b11010100000 :
b1 8
1.
0-
0,
0)
1'
#190
0!
0%
#195
1!
1%
b100000101001 9
b101101010 :
b10 8
1-
1+
1)
#200
0!
0%
#205
1!
1%
b101010000010 9
b101100010110 :
b11 8
0.
0-
1,
0+
#210
0!
0%
#215
1!
1%
b0 <
b0 8
b0 >
b0 9
b0 :
b100 8
1.
1-
1+
0'
b0 =
#220
0!
0%
#225
1!
1%
b1000000000 9
b111100000000 :
b0 8
0.
0,
0+
1*
0)
1'
#230
0!
0%
#235
1!
1%
b100100100000 9
b1011110000 :
1,
1+
1(
#240
0!
0%
#245
1!
1%
b110110010010 9
b111000101111 :
1.
1)
0'
#250
0!
0%
#255
1!
1%
b11111011001 9
b111111100010 :
0-
0)
#260
0!
0%
#265
1!
1%
b10101111101 9
b110111111110 :
0.
1-
0,
0+
0(
#270
0!
0%
#275
1!
1%
b101010111 9
b1011011111 :
0-
1+
1)
1(
1'
#280
0!
0%
#285
1!
1%
b111100010101 9
b100000101101 :
1,
0*
0)
0(
#290
0!
0%
#295
1!
1%
b100011110001 9
b110010000010 :
1.
1-
1*
0'
#300
0!
0%
#305
1!
1%
b110001111 9
b111111001000 :
0.
0-
0,
0+
0*
#310
0!
0%
#315
1!
1%
b11000 9
b11111100 :
1.
1-
1,
1+
1)
1'
b1 =
#320
0!
0%
#325
1!
1%
b1 <
b101000000001 9
b111100001111 :
b1 >
0.
0-
0,
0+
0)
0'
#330
0!
0%
#335
1!
1%
b10100000 9
b11110000 :
b1 8
1.
1+
#340
0!
0%
#345
1!
1%
b1010 9
b100100001111 :
b10 8
1*
1)
1(
1'
#350
0!
0%
#355
1!
1%
b111100000000 9
b100110010000 :
b11 8
0.
1-
0)
0(
0'
#360
0!
0%
#365
1!
1%
b0 <
b0 8
b0 >
b0 9
b0 :
b100 8
1.
0-
0*
b0 =
#370
0!
0%
#375
1!
1%
b100100000000 :
b0 8
0.
1-
1,
1(
1'
#380
0!
0%
#385
1!
1%
b110000000000 9
b111010010000 :
1.
0-
0+
1*
1)
#390
0!
0%
#395
1!
1%
b111111000000 9
b10111101001 :
0.
1+
0*
0(
0'
#400
0!
0%
#405
1!
1%
b1011111100 9
b110001011110 :
1-
1*
0)
1'
#410
0!
0%
#415
1!
1%
b100100101111 9
b111011000101 :
1.
0*
1(
#420
0!
0%
#425
1!
1%
b110010010010 9
b111111101100 :
0.
1)
0'
#430
0!
0%
#435
1!
1%
b11011001001 9
b111011111110 :
1.
0,
0+
0)
0(
#440
0!
0%
#445
1!
1%
b1101100 9
b1111101111 :
1+
1*
1)
1'
#450
0!
0%
#455
1!
1%
b101100000110 9
b101100111110 :
0.
0+
0)
0'
#460
0!
0%
#465
1!
1%
b110110000 9
b1010110011 :
0-
0*
#470
0!
0%
#475
1!
1%
b11011 9
b101011 :
1+
1*
1)
1'
#480
0!
0%
#485
1!
1%
b101100000001 9
b100000000010 :
1.
1-
1,
0+
0*
0'
#490
0!
0%
#495
1!
1%
b1010110000 9
b11110000000 :
1+
1*
#500
0!
0%
#505
1!
1%
b1100101011 9
b111101111000 :
0.
0,
1(
b1 =
#510
0!
0%
#515
1!
1%
b1 <
b11100110010 9
b101011110111 :
b10 >
0)
#520
0!
0%
#525
1!
1%
b10101110011 9
b101010101111 :
b1 8
1,
0+
0*
0(
#530
0!
0%
#535
1!
1%
b1010111 9
b11010101010 :
b10 8
1.
0-
0,
1+
1)
1(
#540
0!
0%
#545
1!
1%
b11000000101 9
b100101101010 :
b11 8
1-
1,
0)
0(
#550
0!
0%
#555
1!
1%
b0 <
b0 8
b0 >
b0 9
b0 :
b100 8
0.
0,
0+
1)
1'
b0 =
b1 =
#560
0!
0%
#565
1!
1%
b1 <
b101000000000 9
b1000000000 :
b0 8
b1 >
1.
1,
1+
1*
0)
1(
0'
#570
0!
0%
#575
1!
1%
b10110100000 9
b111100100000 :
b1 8
0.
0-
0,
0(
#580
0!
0%
#585
1!
1%
b101011010 9
b100011110010 :
b10 8
1.
1,
0+
0*
1(
#590
0!
0%
#595
1!
1%
b10000010101 9
b10110001111 :
b11 8
0.
1+
#600
0!
0%
#605
1!
1%
b0 <
b0 8
b0 >
b0 9
b0 :
b100 8
1.
1-
0,
0+
1*
1)
0(
b0 =
#610
0!
0%
#615
1!
1%
b1100000000 9
b1100000000 :
b0 8
0.
0-
0*
0)
#620
0!
0%
#625
1!
1%
b110000 9
b110000 :
1-
1+
1)
1'
b10 =
#630
0!
0%
#635
1!
1%
b10 <
b101000000011 9
b101000000011 :
b1 >
17
15
10
1.
0-
1,
0+
0)
0'
b10101010 ;
13
11
00
1/
#640
0!
0%
#645
1!
1%
b10100000 9
b10110100000 :
0,
1(
1'
b1010000 ;
05
03
12
01
10
0/
#650
0!
0%
#655
1!
1%
b110000001010 9
b101011010 :
0.
1-
1+
1)
0(
0'
b11100 ;
14
13
00
#660
0!
0%
#665
1!
1%
b1011000000 9
b101000010101 :
1.
0-
1,
1*
1(
1'
b10100010 ;
15
04
03
02
11
1/
#670
0!
0%
#675
1!
1%
b111100101100 9
b110110100001 :
0.
0+
0*
0)
0(
0'
b11011111 ;
16
14
13
12
01
10
#680
0!
0%
#685
1!
1%
b11110010 9
b10011011010 :
1.
1*
1)
b1000000 ;
06
05
04
03
02
0/
#690
0!
0%
#695
1!
1%
b1100001111 9
b10101001101 :
1-
0,
1+
0)
1'
b1010011 ;
16
15
12
#700
0!
0%
#705
1!
1%
b100100110000 9
b101101010100 :
0.
0-
0*
1(
0'
b10111001 ;
05
13
11
00
1/
#710
0!
0%
#715
1!
1%
b10010010011 9
b100010110101 :
1,
0+
1*
1)
0(
b10000100 ;
06
14
03
02
01
#720
0!
0%
#725
1!
1%
b1101001001 9
b10010001011 :
0,
1(
b1000011 ;
16
15
04
10
0/
#730
0!
0%
#735
1!
1%
b11100110100 9
b1001000 :
1.
1,
1+
0*
0)
1'
b111 ;
14
00
#740
0!
0%
#745
1!
1%
b110001110011 9
b110100000100 :
0.
0,
0+
1)
0'
b11011100 ;
06
05
13
12
10
1/
#750
0!
0%
#755
1!
1%
b11011000111 9
b11010000 :
1-
1,
1*
0)
b110 ;
15
03
02
00
0/
#760
0!
0%
#765
1!
1%
b10101101100 9
b11000001101 :
1&
0-
0,
0*
0(
b1100101 ;
16
05
11
10
#770
0!
0%
#775
1!
1%
b0 <
b0 >
b0 9
b0 :
07
06
04
01
00
0&
1-
1,
1+
1)
1'
b0 =
b1 =
#780
0!
0%
#785
1!
1%
b1 <
b101000000000 9
b111000000000 :
b1 >
0-
0)
1(
#790
0!
0%
#795
1!
1%
b110010100000 9
b110011100000 :
b1 8
1.
1-
0+
1*
0(
0'
#800
0!
0%
#805
1!
1%
b111001010 9
b11111001110 :
b10 8
0.
0,
1+
#810
0!
0%
#815
1!
1%
b100011100 9
b101001111100 :
b11 8
1.
0-
1,
0+
1(
#820
0!
0%
#825
1!
1%
b0 <
b0 8
b0 >
b0 9
b0 :
b100 8
0.
1+
1)
0(
b0 =
#830
0!
0%
#835
1!
1%
b1100000000 9
b110000000000 :
b0 8
1-
0)
#840
0!
0%
#845
1!
1%
b100110000 9
b111011000000 :
1.
0-
1)
1'
#850
0!
0%
#855
1!
1%
b101100010011 9
b110111101100 :
0+
0)
1(
0'
#860
0!
0%
#865
1!
1%
b10110110001 9
b10111011110 :
1-
0,
1+
0*
1)
1'
#870
0!
0%
#875
1!
1%
b111001011011 9
b101101011101 :
1,
0+
0)
0(
#880
0!
0%
#885
1!
1%
b100011100101 9
b11110110101 :
1*
0'
#890
0!
0%
#895
1!
1%
b110001110 9
b11101111011 :
0-
0,
1)
1(
#900
0!
0%
#905
1!
1%
b11100011000 9
b101110111 :
0.
1-
1,
1+
0*
0)
0(
1'
#910
0!
0%
#915
1!
1%
b100001110001 9
b111000010111 :
0-
0,
0+
0'
#920
0!
0%
#925
1!
1%
b10000111 9
b11100001 :
1-
1+
1*
1'
b1 =
#930
0!
0%
#935
1!
1%
b1 <
b100100001000 9
b101000001110 :
b10 >
1.
0-
1,
1)
1(
#940
0!
0%
#945
1!
1%
b111110010000 9
b110110100000 :
b1 8
0.
0,
0+
0*
0)
0(
#950
0!
0%
#955
1!
1%
b100011111001 9
b11011010 :
b10 8
1.
1-
1+
1)
#960
0!
0%
#965
1!
1%
b101010001111 9
b101100001101 :
b11 8
0.
0-
1,
1*
1(
0'
#970
0!
0%
#975
1!
1%
b0 <
b0 8
b0 >
b0 9
b0 :
b100 8
1.
0*
b0 =
#980
0!
0%
#985
1!
1%
b11000000000 9
b110100000000 :
b0 8
0+
1*
0(
#990
0!
0%
#995
1!
1%
b1101100000 9
b10111010000 :
1-
0,
1(
#1000
0!
0%
#1005
1!
1%
b11100110110 9
b1101011101 :
0-
1'
#1010
0!
0%
#1015
1!
1%
b111101110011 9
b100110101 :
0.
1+
0(
0'
#1020
0!
0%
#1025
1!
1%
b1111110111 9
b100000010011 :
1.
1,
0*
1'
b1 =
#1030
0!
0%
#1035
1!
1%
b1 <
b101000111111 9
b110110000001 :
b1 >
1(
#1040
0!
0%
#1045
1!
1%
b111010100011 9
b110111011000 :
b1 8
0.
0'
#1050
0!
0%
#1055
1!
1%
b11011101010 9
b110011011101 :
b10 8
1.
1-
0+
1*
0)
0(
1'
#1060
0!
0%
#1065
1!
1%
b100101101110 9
b11111001101 :
b11 8
0.
0-
0,
0*
0'
#1070
0!
0%
#1075
1!
1%
b0 <
b0 8
b0 >
b0 9
b0 :
b100 8
1.
1-
1)
1'
b0 =
b1 =
#1080
0!
0%
#1085
1!
1%
b1 <
b101000000000 9
b1100000000 :
b0 8
b1 >
0.
0-
0)
0'
#1090
0!
0%
#1095
1!
1%
b10100000 9
b110000 :
b1 8
1-
1+
1*
b10 =
#1100
0!
0%
#1105
1!
1%
b10 <
b100001010 9
b101000000011 :
b10 8
17
16
14
11
10
1.
0-
1,
0*
1)
1(
b10101010 ;
06
15
04
13
00
1/
#1110
0!
0%
#1115
1!
1%
b11000010000 9
b110110100000 :
0.
1-
0,
0+
b11010000 ;
05
03
12
01
10
#1120
0!
0%
#1125
1!
1%
b11001100001 9
b1011011010 :
0-
1,
1*
0(
1'
b100001 ;
16
02
11
00
0/
#1130
0!
0%
#1135
1!
1%
b101101100110 9
b10000101101 :
1+
1(
0'
b1000110 ;
06
15
14
01
10
#1140
0!
0%
#1145
1!
1%
b11110110110 9
b110001000010 :
1-
0*
0)
0(
b11000110 ;
1/
#1150
0!
0%
#1155
1!
1%
b1111011 9
b111011000100 :
0,
1)
1'
b11101011 ;
16
04
13
11
#1160
0!
0%
#1165
1!
1%
b101000000111 9
b101011101100 :
1.
0-
1,
0+
0'
b10100111 ;
14
03
00
#1170
0!
0%
#1175
1!
1%
b1010100000 9
b10110101110 :
1-
1+
1*
1(
1'
b1010000 ;
06
05
04
12
01
10
0/
#1180
0!
0%
#1185
1!
1%
b111100101010 9
b111101011010 :
0.
b11111010 ;
15
13
11
1/
#1190
0!
0%
#1195
1!
1%
b111111110010 9
b111011110101 :
0-
0,
0+
0)
0'
b11100010 ;
03
02
#1200
0!
0%
#1205
1!
1%
b10111111111 9
b11101111 :
1&
0*
0(
b1111 ;
16
14
13
01
00
0/
#1210
0!
0%
#1215
1!
1%
b0 <
b0 8
b0 >
b0 9
b0 :
07
06
05
04
03
0&
1.
1-
1+
1*
1)
1'
b0 =
#1220
0!
0%
#1225
1!
1%
b101100000000 9
b101100000000 :
0-
0+
0)
1(
#1230
0!
0%
#1235
1!
1%
b110110110000 9
b110110000 :
0.
1+
0*
0(
0'
#1240
0!
0%
#1245
1!
1%
b11011011 9
b100000011011 :
1-
1*
1'
b1 =
#1250
0!
0%
#1255
1!
1%
b1 <
b100100001101 9
b101010000001 :
b10 >
0*
1(
0'
#1260
0!
0%
#1265
1!
1%
b10010010000 9
b101010101000 :
b1 8
0-
1,
1*
1'
#1270
0!
0%
#1275
1!
1%
b110101001001 9
b110010101010 :
b10 8
1.
0,
#1280
0!
0%
#1285
1!
1%
b110111010100 9
b100111001010 :
b11 8
1-
0*
0(
0'
#1290
0!
0%
#1295
1!
1%
b0 <
b0 8
b0 >
b0 9
b0 :
b100 8
0.
0-
1*
1)
b0 =
#1300
0!
0%
#1305
1!
1%
b1100000000 9
b100000000000 :
b0 8
1.
1-
1(
#1310
0!
0%
#1315
1!
1%
b11100110000 9
b101110000000 :
0-
0+
0*
0(
#1320
0!
0%
#1325
1!
1%
b1001110011 9
b110111000 :
1-
1,
1+
1*
1(
1'
#1330
0!
0%
#1335
1!
1%
b111100100111 9
b111100011011 :
0.
0-
0,
0*
0(
0'
#1340
0!
0%
#1345
1!
1%
b1011110010 9
b100011110001 :
1.
1-
1,
1(
#1350
0!
0%
#1355
1!
1%
b11000101111 9
b111110001111 :
0.
0-
0,
0+
0)
0(
#1360
0!
0%
#1365
1!
1%
b1100010 9
b11111000 :
1-
1+
1)
1'
b10 =
#1370
0!
0%
#1375
1!
1%
b10 <
b101000000110 9
b101000001111 :
b1 >
17
16
15
14
13
1.
0-
1,
0+
1(
b10101010 ;
06
04
11
1/
#1380
0!
0%
#1385
1!
1%
b111010100000 9
b10110100000 :
0.
1+
0)
0(
b1011110 ;
14
12
01
10
0/
#1390
0!
0%
#1395
1!
1%
b100011101010 9
b110001011010 :
1-
0,
1*
0'
b11001000 ;
05
04
02
1/
#1400
0!
0%
#1405
1!
1%
b110001110 9
b101011000101 :
0-
1,
1)
1(
1'
b10100001 ;
16
03
11
00
#1410
0!
0%
#1415
1!
1%
b111100011000 9
b110010101100 :
1.
0)
0'
b11001111 ;
15
14
13
01
10
#1420
0!
0%
#1425
1!
1%
b10111110001 9
b110111001010 :
1-
0+
0(
1'
b11010101 ;
05
03
12
#1430
0!
0%
#1435
1!
1%
b100101011111 9
b11111011100 :
0-
1+
1(
0'
b1111001 ;
04
13
11
0/
#1440
0!
0%
#1445
1!
1%
b10110010101 9
b110101111101 :
0.
0,
0+
1)
b11010101 ;
14
03
01
1/
#1450
0!
0%
#1455
1!
1%
b11101011001 9
b11010111 :
1+
0*
0)
b111 ;
15
02
00
0/
#1460
0!
0%
#1465
1!
1%
b10001110101 9
b100000001101 :
1.
1-
1,
1'
b10000100 ;
06
05
1/
#1470
0!
0%
#1475
1!
1%
b110001000111 9
b111110000000 :
0-
0,
1*
1)
0(
b11111100 ;
13
12
11
10
#1480
0!
0%
#1485
1!
1%
b101111000100 9
b100111111000 :
0.
1-
1,
0+
0*
1(
b10011011 ;
16
15
04
01
00
#1490
0!
0%
#1495
1!
1%
b111010111100 9
b11010011111 :
1.
1+
1*
0)
0'
b1101110 ;
06
14
02
11
10
0/
#1500
0!
0%
#1505
1!
1%
b10111101011 9
b111101101001 :
1&
0.
0-
0,
0+
0*
0(
b11110101 ;
16
05
03
12
1/
#1510
0!
0%
#1515
1!
1%
b0 <
b0 >
b0 9
b0 :
07
06
04
02
01
00
0/
0&
1.
1-
1,
1+
1)
1'
b0 =
b1 =
#1520
0!
0%
#1525
1!
1%
b1 <
b101000000000 9
b111100000000 :
b1 >
0.
0,
0)
1(
b10 =
#1530
0!
0%
#1535
1!
1%
b10 <
b110010100000 9
b101011110000 :
b1 8
17
16
14
12
11
10
1/
1.
0-
1,
0+
1*
1)
0'
b10101010 ;
06
15
04
13
02
00
#1540
0!
0%
#1545
1!
1%
b11111001010 9
b10110101111 :
0.
0,
0*
0)
b1011100 ;
05
14
12
01
10
0/
#1550
0!
0%
#1555
1!
1%
b10001111100 9
b1011010 :
1-
1*
0(
1'
b111 ;
16
15
03
02
00
#1560
0!
0%
#1565
1!
1%
b100101000111 9
b1000000101 :
1)
0'
b100100 ;
06
05
11
#1570
0!
0%
#1575
1!
1%
b1110010100 9
b1000100000 :
0)
1'
b101001 ;
16
04
13
#1580
0!
0%
#1585
1!
1%
b100100111001 9
b1000100010 :
1.
0-
1,
0*
1)
1(
0'
b100011 ;
15
03
#1590
0!
0%
#1595
1!
1%
b11010010011 9
b10100100010 :
0.
0,
1+
1*
0(
b1011001 ;
05
13
12
01
10
#1600
0!
0%
#1605
1!
1%
b1101101001 9
b100001010010 :
1.
0+
0)
1(
1'
b10000110 ;
06
15
14
03
02
00
1/
#1610
0!
0%
#1615
1!
1%
b110100110110 9
b110000101 :
0.
1,
0*
1)
0'
b10011 ;
16
04
12
0/
#1620
0!
0%
#1625
1!
1%
b11011010011 9
b10000011000 :
1-
0)
b1001101 ;
05
14
13
02
10
#1630
0!
0%
#1635
1!
1%
b10001101101 9
b11001000001 :
1&
0-
0,
0(
b1100110 ;
06
15
03
11
#1640
0!
0%
#1645
1!
1%
b0 <
b0 8
b0 >
b0 9
b0 :
07
05
04
01
00
0&
1-
1+
1*
1'
b0 =
b1 =
#1650
0!
0%
#1655
1!
1%
b1 <
b100100000000 9
b101000000000 :
b10 >
0-
1)
0'
#1660
0!
0%
#1665
1!
1%
b1110010000 9
b100010100000 :
b1 8
1-
#1670
0!
0%
#1675
1!
1%
b1100111001 9
b101010001010 :
b10 8
1.
0*
1'
#1680
0!
0%
#1685
1!
1%
b101000110011 9
b101110101000 :
b11 8
0.
0-
1,
0+
1*
1(
#1690
0!
0%
#1695
1!
1%
b0 <
b0 8
b0 >
b0 9
b0 :
b100 8
1-
0,
1+
0(
0'
b0 =
b1 =
#1700
0!
0%
#1705
1!
1%
b1 <
b1100000000 9
b101000000000 :
b0 8
b10 >
1.
0*
1(
#1710
0!
0%
#1715
1!
1%
b11000110000 9
b101110100000 :
b1 8
0-
1,
0+
1*
0(
1'
#1720
0!
0%
#1725
1!
1%
b101101100011 9
b10110111010 :
b10 8
1-
0,
1+
1(
0'
#1730
0!
0%
#1735
1!
1%
b11110110110 9
b101101011011 :
b11 8
0-
0+
0*
#1740
0!
0%
#1745
1!
1%
b0 <
b0 8
b0 >
b0 9
b0 :
b100 8
1,
1+
1*
0)
1'
b0 =
#1750
0!
0%
#1755
1!
1%
b110100000000 9
b110100000000 :
b0 8
0.
1-
0,
0+
0*
1)
0'
#1760
0!
0%
#1765
1!
1%
b11011010000 9
b1011010000 :
1.
1,
1+
1*
0)
0(
1'
#1770
0!
0%
#1775
1!
1%
b100101101101 9
b111100101101 :
0-
0,
1)
#1780
0!
0%
#1785
1!
1%
b101110010110 9
b100111110010 :
0.
0+
0*
0)
0'
#1790
0!
0%
#1795
1!
1%
b10111001 9
b10011111 :
1.
1)
1'
b1 =
#1800
0!
0%
#1805
1!
1%
b1 <
b101000001011 9
b100001001 :
b1 >
0.
0)
0'
#1810
0!
0%
#1815
1!
1%
b10100000 9
b10000 :
b1 8
1.
1-
1+
1)
1'
#1820
0!
0%
#1825
1!
1%
b101000001010 9
b101100000001 :
b10 8
0-
1,
0+
#1830
0!
0%
#1835
1!
1%
b101010100000 9
b10110110000 :
b11 8
0.
0,
1+
1(
#1840
0!
0%
#1845
1!
1%
b0 <
b0 8
b0 >
b0 9
b0 :
b100 8
1,
0+
0'
b0 =
#1850
0!
0%
#1855
1!
1%
b11000000000 9
b10000000000 :
b0 8
1-
0,
1+
0(
b1 =
#1860
0!
0%
#1865
1!
1%
b1 <
b1001100000 9
b101001000000 :
b10 >
1.
0-
1,
0+
1*
0)
1(
1'
#1870
0!
0%
#1875
1!
1%
b110100100110 9
b10110100100 :
b1 8
0,
0*
1)
0'
#1880
0!
0%
#1885
1!
1%
b11011010010 9
b101011010 :
b10 8
0.
1+
1*
0)
#1890
0!
0%
#1895
1!
1%
b10101101101 9
b100000010101 :
b11 8
1,
0*
1'
#1900
0!
0%
#1905
1!
1%
b0 <
b0 8
b0 >
b0 9
b0 :
b100 8
1.
1-
b0 =
#1910
0!
0%
#1915
1!
1%
b110000000000 9
b111100000000 :
b0 8
0.
0-
1*
1)
0(
#1920
0!
0%
#1925
1!
1%
b101111000000 9
b110011110000 :
1-
0,
1(
b1 =
#1930
0!
0%
#1935
1!
1%
b1 <
b111110111100 9
b101011001111 :
b10 >
1.
0-
1,
0+
0)
0(
#1940
0!
0%
#1945
1!
1%
b100111111011 9
b10110101100 :
b1 8
0.
1-
1+
0*
0'
#1950
0!
0%
#1955
1!
1%
b10011111 9
b111001011010 :
b10 8
0-
0+
1*
1)
1(
#1960
0!
0%
#1965
1!
1%
b11100001001 9
b10011100101 :
b11 8
0,
0*
0)
0(
#1970
0!
0%
#1975
1!
1%
b0 <
b0 8
b0 >
b0 9
b0 :
b100 8
1.
1-
1,
1*
1)
1'
b0 =
#1980
0!
0%
#1985
1!
1%
b101100000000 9
b11100000000 :
b0 8
1+
0*
0)
1(
#1990
0!
0%
#1995
1!
1%
b110010110000 9
b111101110000 :
0.
0+
1*
#2000
0!
0%
#2005
1!
1%
b110111001011 9
b11011110111 :
0,
1+
0*
0'
b1 =
#2010
0!
0%
#2015
1!
1%
b1 <
b10011011100 9
b101001101111 :
b10 >
1,
0+
1)
1'
#2020
0!
0%
#2025
1!
1%
b111001001101 9
b11010100110 :
b1 8
1+
0(
0'
#2030
0!
0%
#2035
1!
1%
b1011100100 9
b111001101010 :
b10 8
0+
1*
0)
1(
1'
#2040
0!
0%
#2045
1!
1%
b110100101110 9
b11011100110 :
b11 8
1.
1+
0*
0(
0'
#2050
0!
0%
#2055
1!
1%
b0 <
b0 8
b0 >
b0 9
b0 :
b100 8
0.
0-
0,
1*
1)
1(
1'
b0 =
#2060
0!
0%
#2065
1!
1%
b111100000000 9
b100000000000 :
b0 8
0)
0'
#2070
0!
0%
#2075
1!
1%
b10111110000 9
b100010000000 :
0*
1)
0(
1'
b1 =
#2080
0!
0%
#2085
1!
1%
b1 <
b101001011111 9
b100010001000 :
b1 >
1-
1,
0)
1(
#2090
0!
0%
#2095
1!
1%
b110010100101 9
b111010001000 :
b1 8
1.
0-
0,
#2100
0!
0%
#2105
1!
1%
b110011001010 9
b100111101000 :
b10 8
1,
0+
1*
1)
0'
#2110
0!
0%
#2115
1!
1%
b11111001100 9
b10110011110 :
b11 8
0.
0,
0*
0)
0(
#2120
0!
0%
#2125
1!
1%
b0 <
b0 8
b0 >
b0 9
b0 :
b100 8
1-
1+
1)
1'
b0 =
b10 =
#2130
0!
0%
#2135
1!
1%
b10 <
b101000000000 9
b101000000000 :
b0 8
b1 >
17
15
14
11
10
1.
0-
1,
0+
1*
b10101010 ;
04
13
00
1/
#2140
0!
0%
#2145
1!
1%
b101110100000 9
b10110100000 :
0.
0,
0*
0)
0'
b1011011 ;
16
12
01
10
0/
#2150
0!
0%
#2155
1!
1%
b10111010 9
b1011010 :
1-
1+
1)
b0 ;
06
05
03
02
00
#2160
0!
0%
#2165
1!
1%
b1000001011 9
b101000000101 :
1,
1*
0)
1'
b10100010 ;
15
11
1/
#2170
0!
0%
#2175
1!
1%
b100100100000 9
b111010100000 :
0*
b11101001 ;
16
05
13
10
#2180
0!
0%
#2185
1!
1%
b100010010010 9
b111011101010 :
1.
0-
1*
1)
1(
0'
b11101000 ;
06
#2190
0!
0%
#2195
1!
1%
b11110001001 9
b110111101110 :
0,
0+
b11010111 ;
16
15
14
03
12
01
#2200
0!
0%
#2205
1!
1%
b11101111000 9
b111011110 :
0.
1,
1+
0*
0(
b10111 ;
00
0/
#2210
0!
0%
#2215
1!
1%
b1001110111 9
b110000011101 :
1.
1-
0,
1(
1'
b11000010 ;
06
04
02
10
1/
#2220
0!
0%
#2225
1!
1%
b111000100111 9
b101111000001 :
0-
0+
1*
b10111110 ;
14
13
12
11
00
#2230
0!
0%
#2235
1!
1%
b111111100010 9
b110111100 :
1-
1,
0*
0)
b11111 ;
16
01
0/
#2240
0!
0%
#2245
1!
1%
b110011111110 9
b11100011011 :
0.
1+
1*
1)
0(
0'
b1111100 ;
06
05
11
10
#2250
0!
0%
#2255
1!
1%
b1111001111 9
b111001110001 :
0,
0)
b11100011 ;
16
15
04
03
02
1/
#2260
0!
0%
#2265
1!
1%
b100111100 9
b101011100111 :
1&
0-
0+
0*
b10100001 ;
05
00
#2270
0!
0%
#2275
1!
1%
b0 <
b0 >
b0 9
b0 :
07
06
01
0/
0&
1.
1-
1,
1)
1'
b0 =
b1 =
#2280
0!
0%
#2285
1!
1%
b1 <
b101000000000 9
b11100000000 :
b1 >
0.
0,
1+
1*
0)
b10 =
#2290
0!
0%
#2295
1!
1%
b10 <
b100110100000 9
b101001110000 :
b1 8
17
16
11
1/
1,
1(
0'
b10101010 ;
06
15
13
#2300
0!
0%
#2305
1!
1%
b10110011010 9
b111010100111 :
0,
0*
1'
b11101001 ;
16
05
10
#2310
0!
0%
#2315
1!
1%
b110001011001 9
b101011101010 :
0-
0+
1)
b10100101 ;
14
03
00
#2320
0!
0%
#2325
1!
1%
b111011000101 9
b10101110 :
1.
1-
1,
1+
1*
0(
b1100 ;
06
13
01
0/
#2330
0!
0%
#2335
1!
1%
b101111101100 9
b111100001010 :
0.
0-
0*
1(
b11111110 ;
15
12
11
10
1/
#2340
0!
0%
#2345
1!
1%
b111010111110 9
b110011110000 :
1.
0+
1*
0(
0'
b11001011 ;
16
04
02
01
#2350
0!
0%
#2355
1!
1%
b1111101011 9
b10111001111 :
1-
0*
0)
1(
1'
b1011110 ;
06
14
12
0/
#2360
0!
0%
#2365
1!
1%
b110000111110 9
b11101011100 :
0.
1+
1*
0(
b1110011 ;
16
04
03
11
#2370
0!
0%
#2375
1!
1%
b100111000011 9
b111001110101 :
1.
0-
0*
b11101100 ;
06
05
14
13
02
1/
#2380
0!
0%
#2385
1!
1%
b100010011100 9
b110111100111 :
0,
1*
b11011001 ;
16
04
12
01
#2390
0!
0%
#2395
1!
1%
b100110001001 9
b100111011110 :
1&
0.
0+
0*
0'
b10011000 ;
06
00
#2400
0!
0%
