de_skew/src/transcript
# //  Questa Sim-64
# //  Version 2021.2_1 linux_x86_64 May 15 2021
# //
# //  Copyright 1991-2021 Mentor Graphics Corporation
# //  All Rights Reserved.
# //
# //  QuestaSim and its associated documentation contain trade
# //  secrets and commercial or financial information that are the property of
# //  Mentor Graphics Corporation and are privileged, confidential,
# //  and exempt from disclosure under the Freedom of Information Act,
# //  5 U.S.C. Section 552. Furthermore, this information
# //  is prohibited from disclosure under the Trade Secrets Act,
# //  18 U.S.C. Section 1905.
# //
# do run_cov.tcl
# QuestaSim-64 vlog 2021.2_1 Compiler 2021.05 May 15 2021
# Start time: 17:57:46 on Apr 03,2026
# vlog -reportprogress 300 -sv "+cover=bcestf" rtl/de_skew.sv tb/testbench.sv 
# -- Compiling module de_skew
# -- Compiling interface des_if
# -- Compiling package testbench_sv_unit
# -- Compiling module tb
# 
# Top level modules:
# 	tb
# End time: 17:57:46 on Apr 03,2026, Elapsed time: 0:00:00
# Errors: 0, Warnings: 0
# vsim -gui -coverage -assertdebug -voptargs="+acc" -onfinish stop work.tb 
# Start time: 17:57:46 on Apr 03,2026
# ** Note: (vsim-8009) Loading existing optimized design _opt1
# Loading sv_std.std
# Loading work.testbench_sv_unit(fast)
# Loading work.tb(fast)
# Loading work.des_if(fast__2)
# Loading work.de_skew(fast)
# Loading work.des_if(fast)
# [GEN] s1=a s2=2 out=00 aligned=0 reset=0
# [GEN] s1=3 s2=4 out=00 aligned=0 reset=0
# [GEN] s1=e s2=a out=00 aligned=0 reset=0
# [GEN] s1=4 s2=e out=00 aligned=0 reset=0
# [GEN] s1=9 s2=5 out=00 aligned=0 reset=0
# [GEN] s1=2 s2=0 out=00 aligned=0 reset=0
# [GEN] s1=9 s2=d out=00 aligned=0 reset=0
# [GEN] s1=d s2=8 out=00 aligned=0 reset=0
# [GEN] s1=1 s2=7 out=00 aligned=0 reset=0
# [GEN] s1=a s2=3 out=00 aligned=0 reset=0
# [GEN] s1=2 s2=5 out=00 aligned=0 reset=0
# [GEN] s1=7 s2=d out=00 aligned=0 reset=0
# [GEN] s1=5 s2=4 out=00 aligned=0 reset=0
# [GEN] s1=0 s2=0 out=00 aligned=0 reset=1
#  MATCH: 0
# one
#  MATCH: 0
#  MATCH: 0
#  MATCH: 0
#  MISMATCH
# State=0 c=0 LSB=0
# Expected: stream=0 aligned=0
# Got     : stream=aa aligned=1
# [GEN] s1=9 s2=a out=00 aligned=0 reset=0
# [GEN] s1=2 s2=6 out=00 aligned=0 reset=0
# [GEN] s1=8 s2=1 out=00 aligned=0 reset=0
# [GEN] s1=a s2=b out=00 aligned=0 reset=0
# [GEN] s1=a s2=4 out=00 aligned=0 reset=0
# [GEN] s1=2 s2=f out=00 aligned=0 reset=0
# [GEN] s1=9 s2=2 out=00 aligned=0 reset=0
# [GEN] s1=d s2=e out=00 aligned=0 reset=0
# [GEN] s1=7 s2=f out=00 aligned=0 reset=0
# [GEN] s1=5 s2=d out=00 aligned=0 reset=0
# [GEN] s1=1 s2=2 out=00 aligned=0 reset=0
# [GEN] s1=f s2=8 out=00 aligned=0 reset=0
# [GEN] s1=8 s2=c out=00 aligned=0 reset=0
# [GEN] s1=1 s2=f out=00 aligned=0 reset=0
# [GEN] s1=0 s2=0 out=00 aligned=0 reset=1
#  MISMATCH
# State=0 c=0 LSB=0
# Expected: stream=0 aligned=0
# Got     : stream=e3 aligned=1
# ** Error: Assertion error.
#    Time: 75 ns Started: 35 ns  Scope: tb.vif File: tb/interfaces.sv Line: 23 Expr: stream1==10
#  MISMATCH
# State=0 c=0 LSB=0
# Expected: stream=0 aligned=0
# Got     : stream=5e aligned=1
#  MISMATCH
# State=0 c=0 LSB=0
# Expected: stream=0 aligned=0
# Got     : stream=4 aligned=1
#  MISMATCH
# State=0 c=0 LSB=0
# Expected: stream=0 aligned=0
# Got     : stream=d9 aligned=1
#  MISMATCH
# State=0 c=0 LSB=0
# Expected: stream=0 aligned=0
# Got     : stream=82 aligned=1
# [GEN] s1=a s2=f out=00 aligned=0 reset=0
# [GEN] s1=0 s2=0 out=00 aligned=0 reset=1
# [GEN] s1=0 s2=9 out=00 aligned=0 reset=0
# [GEN] s1=f s2=9 out=00 aligned=0 reset=0
# [GEN] s1=1 s2=a out=00 aligned=0 reset=0
# [GEN] s1=0 s2=9 out=00 aligned=0 reset=0
# [GEN] s1=c s2=e out=00 aligned=0 reset=0
# [GEN] s1=f s2=5 out=00 aligned=0 reset=0
# [GEN] s1=2 s2=c out=00 aligned=0 reset=0
# [GEN] s1=9 s2=e out=00 aligned=0 reset=0
# [GEN] s1=c s2=f out=00 aligned=0 reset=0
# [GEN] s1=6 s2=e out=00 aligned=0 reset=0
# [GEN] s1=0 s2=3 out=00 aligned=0 reset=0
# [GEN] s1=b s2=b out=00 aligned=0 reset=0
# [GEN] s1=1 s2=2 out=00 aligned=0 reset=0
# [GEN] s1=0 s2=0 out=00 aligned=0 reset=1
#  MISMATCH
# State=1 c=1 LSB=0
# Expected: stream=0 aligned=0
# Got     : stream=79 aligned=1
#  MISMATCH
# State=1 c=2 LSB=0
# Expected: stream=0 aligned=0
# Got     : stream=3d aligned=1
#  MISMATCH
# State=1 c=3 LSB=0
# Expected: stream=0 aligned=0
# Got     : stream=51 aligned=1
#  MISMATCH
# State=0 c=0 LSB=0
# Expected: stream=0 aligned=0
# Got     : stream=da aligned=1
#  MISMATCH
# State=0 c=0 LSB=0
# Expected: stream=0 aligned=0
# Got     : stream=42 aligned=1
# two
# [GEN] s1=b s2=8 out=00 aligned=0 reset=0
# [GEN] s1=2 s2=7 out=00 aligned=0 reset=0
# [GEN] s1=3 s2=f out=00 aligned=0 reset=0
# [GEN] s1=7 s2=a out=00 aligned=0 reset=0
# [GEN] s1=5 s2=a out=00 aligned=0 reset=0
# [GEN] s1=0 s2=6 out=00 aligned=0 reset=0
# [GEN] s1=6 s2=9 out=00 aligned=0 reset=0
# [GEN] s1=0 s2=f out=00 aligned=0 reset=0
# [GEN] s1=a s2=2 out=00 aligned=0 reset=0
# [GEN] s1=5 s2=f out=00 aligned=0 reset=0
# [GEN] s1=1 s2=8 out=00 aligned=0 reset=0
# [GEN] s1=4 s2=5 out=00 aligned=0 reset=0
# [GEN] s1=4 s2=c out=00 aligned=0 reset=0
# [GEN] s1=3 s2=3 out=00 aligned=0 reset=0
# [GEN] s1=0 s2=0 out=00 aligned=0 reset=1
#  MATCH: 0
#  MATCH: 0
#  MATCH: 0
#  MATCH: 0
#  MATCH: 0
# [GEN] s1=a s2=a out=00 aligned=0 reset=0
# [GEN] s1=0 s2=5 out=00 aligned=0 reset=0
# [GEN] s1=c s2=1 out=00 aligned=0 reset=0
# [GEN] s1=2 s2=a out=00 aligned=0 reset=0
# [GEN] s1=f s2=d out=00 aligned=0 reset=0
# [GEN] s1=0 s2=4 out=00 aligned=0 reset=0
# [GEN] s1=3 s2=5 out=00 aligned=0 reset=0
# [GEN] s1=9 s2=b out=00 aligned=0 reset=0
# [GEN] s1=4 s2=8 out=00 aligned=0 reset=0
# [GEN] s1=3 s2=4 out=00 aligned=0 reset=0
# [GEN] s1=7 s2=0 out=00 aligned=0 reset=0
# [GEN] s1=c s2=d out=00 aligned=0 reset=0
# [GEN] s1=6 s2=0 out=00 aligned=0 reset=0
# [GEN] s1=5 s2=6 out=00 aligned=0 reset=0
# [GEN] s1=0 s2=0 out=00 aligned=0 reset=1
# [GEN] s1=a s2=e out=00 aligned=0 reset=0
# [GEN] s1=c s2=c out=00 aligned=0 reset=0
# [GEN] s1=1 s2=7 out=00 aligned=0 reset=0
# [GEN] s1=1 s2=a out=00 aligned=0 reset=0
# [GEN] s1=5 s2=5 out=00 aligned=0 reset=0
# [GEN] s1=3 s2=c out=00 aligned=0 reset=0
# [GEN] s1=1 s2=e out=00 aligned=0 reset=0
# [GEN] s1=b s2=d out=00 aligned=0 reset=0
# [GEN] s1=5 s2=5 out=00 aligned=0 reset=0
# [GEN] s1=e s2=b out=00 aligned=0 reset=0
# [GEN] s1=8 s2=7 out=00 aligned=0 reset=0
# [GEN] s1=1 s2=7 out=00 aligned=0 reset=0
# [GEN] s1=7 s2=1 out=00 aligned=0 reset=0
# [GEN] s1=8 s2=e out=00 aligned=0 reset=0
# [GEN] s1=0 s2=0 out=00 aligned=0 reset=1
#  MATCH: 0
#  MATCH: 0
#  MATCH: 0
#  MATCH: 0
#  MATCH: 0
# [GEN] s1=9 s2=a out=00 aligned=0 reset=0
# [GEN] s1=f s2=d out=00 aligned=0 reset=0
# [GEN] s1=8 s2=0 out=00 aligned=0 reset=0
# [GEN] s1=a s2=b out=00 aligned=0 reset=0
# [GEN] s1=7 s2=c out=00 aligned=0 reset=0
# [GEN] s1=6 s2=d out=00 aligned=0 reset=0
# [GEN] s1=3 s2=5 out=00 aligned=0 reset=0
# [GEN] s1=7 s2=3 out=00 aligned=0 reset=0
# [GEN] s1=f s2=1 out=00 aligned=0 reset=0
# [GEN] s1=3 s2=8 out=00 aligned=0 reset=0
# [GEN] s1=a s2=d out=00 aligned=0 reset=0
# [GEN] s1=e s2=d out=00 aligned=0 reset=0
# [GEN] s1=6 s2=c out=00 aligned=0 reset=0
# [GEN] s1=9 s2=7 out=00 aligned=0 reset=0
# [GEN] s1=0 s2=0 out=00 aligned=0 reset=1
#  MATCH: 0
#  MATCH: 0
#  MATCH: 0
#  MATCH: 0
#  MATCH: 0
# one
# [GEN] s1=a s2=3 out=00 aligned=0 reset=0
# [GEN] s1=0 s2=0 out=00 aligned=0 reset=1
# [GEN] s1=1 s2=a out=00 aligned=0 reset=0
# [GEN] s1=6 s2=d out=00 aligned=0 reset=0
# [GEN] s1=6 s2=2 out=00 aligned=0 reset=0
# [GEN] s1=b s2=4 out=00 aligned=0 reset=0
# [GEN] s1=7 s2=c out=00 aligned=0 reset=0
# [GEN] s1=0 s2=e out=00 aligned=0 reset=0
# [GEN] s1=a s2=a out=00 aligned=0 reset=0
# [GEN] s1=2 s2=5 out=00 aligned=0 reset=0
# [GEN] s1=f s2=f out=00 aligned=0 reset=0
# [GEN] s1=f s2=e out=00 aligned=0 reset=0
# [GEN] s1=5 s2=0 out=00 aligned=0 reset=0
# [GEN] s1=0 s2=0 out=00 aligned=0 reset=1
#  MATCH: 0
#  MATCH: 0
#  MATCH: 0
#  MATCH: 0
#  MATCH: 0
# [GEN] s1=b s2=b out=00 aligned=0 reset=0
# [GEN] s1=d s2=1 out=00 aligned=0 reset=0
# [GEN] s1=0 s2=8 out=00 aligned=0 reset=0
# [GEN] s1=9 s2=a out=00 aligned=0 reset=0
# [GEN] s1=4 s2=a out=00 aligned=0 reset=0
# [GEN] s1=d s2=c out=00 aligned=0 reset=0
# [GEN] s1=d s2=9 out=00 aligned=0 reset=0
# [GEN] s1=0 s2=b out=00 aligned=0 reset=0
# [GEN] s1=3 s2=8 out=00 aligned=0 reset=0
# [GEN] s1=7 s2=b out=00 aligned=0 reset=0
# [GEN] s1=2 s2=1 out=00 aligned=0 reset=0
# [GEN] s1=f s2=f out=00 aligned=0 reset=0
# [GEN] s1=2 s2=8 out=00 aligned=0 reset=0
# [GEN] s1=6 s2=f out=00 aligned=0 reset=0
# [GEN] s1=0 s2=0 out=00 aligned=0 reset=1
#  MATCH: 0
#  MATCH: 0
#  MATCH: 0
#  MATCH: 0
#  MATCH: 0
# [GEN] s1=a s2=a out=00 aligned=0 reset=0
# [GEN] s1=e s2=5 out=00 aligned=0 reset=0
# [GEN] s1=8 s2=c out=00 aligned=0 reset=0
# [GEN] s1=1 s2=a out=00 aligned=0 reset=0
# [GEN] s1=f s2=c out=00 aligned=0 reset=0
# [GEN] s1=5 s2=d out=00 aligned=0 reset=0
# [GEN] s1=9 s2=7 out=00 aligned=0 reset=0
# [GEN] s1=5 s2=d out=00 aligned=0 reset=0
# [GEN] s1=7 s2=0 out=00 aligned=0 reset=0
# [GEN] s1=4 s2=8 out=00 aligned=0 reset=0
# [GEN] s1=c s2=f out=00 aligned=0 reset=0
# [GEN] s1=b s2=9 out=00 aligned=0 reset=0
# [GEN] s1=e s2=6 out=00 aligned=0 reset=0
# [GEN] s1=5 s2=f out=00 aligned=0 reset=0
# [GEN] s1=0 s2=0 out=00 aligned=0 reset=1
# [GEN] s1=a s2=f out=00 aligned=0 reset=0
# [GEN] s1=c s2=a out=00 aligned=0 reset=0
# [GEN] s1=7 s2=5 out=00 aligned=0 reset=0
# [GEN] s1=4 s2=0 out=00 aligned=0 reset=0
# [GEN] s1=9 s2=2 out=00 aligned=0 reset=0
# [GEN] s1=3 s2=2 out=00 aligned=0 reset=0
# [GEN] s1=9 s2=2 out=00 aligned=0 reset=0
# [GEN] s1=6 s2=5 out=00 aligned=0 reset=0
# [GEN] s1=3 s2=8 out=00 aligned=0 reset=0
# [GEN] s1=d s2=1 out=00 aligned=0 reset=0
# [GEN] s1=6 s2=4 out=00 aligned=0 reset=0
# [GEN] s1=4 s2=6 out=00 aligned=0 reset=0
# [GEN] s1=0 s2=0 out=00 aligned=0 reset=1
#  MATCH: 0
#  MATCH: 0
#  MATCH: 0
#  MATCH: 0
#  MATCH: 0
# [GEN] s1=9 s2=a out=00 aligned=0 reset=0
# [GEN] s1=3 s2=8 out=00 aligned=0 reset=0
# [GEN] s1=3 s2=a out=00 aligned=0 reset=0
# [GEN] s1=a s2=b out=00 aligned=0 reset=0
# [GEN] s1=f s2=4 out=00 aligned=0 reset=0
# [GEN] s1=3 s2=a out=00 aligned=0 reset=0
# [GEN] s1=6 s2=b out=00 aligned=0 reset=0
# [GEN] s1=b s2=5 out=00 aligned=0 reset=0
# [GEN] s1=7 s2=b out=00 aligned=0 reset=0
# [GEN] s1=6 s2=1 out=00 aligned=0 reset=0
# [GEN] s1=d s2=d out=00 aligned=0 reset=0
# [GEN] s1=6 s2=2 out=00 aligned=0 reset=0
# [GEN] s1=9 s2=f out=00 aligned=0 reset=0
# [GEN] s1=b s2=9 out=00 aligned=0 reset=0
# [GEN] s1=0 s2=0 out=00 aligned=0 reset=1
#  MATCH: 0
#  MATCH: 0
#  MATCH: 0
#  MATCH: 0
# two
#  MATCH: 0
# [GEN] s1=a s2=1 out=00 aligned=0 reset=0
# [GEN] s1=0 s2=0 out=00 aligned=0 reset=1
# [GEN] s1=a s2=b out=00 aligned=0 reset=0
# [GEN] s1=a s2=5 out=00 aligned=0 reset=0
# [GEN] s1=e s2=8 out=00 aligned=0 reset=0
# [GEN] s1=6 s2=4 out=00 aligned=0 reset=0
# [GEN] s1=2 s2=a out=00 aligned=0 reset=0
# [GEN] s1=d s2=5 out=00 aligned=0 reset=0
# [GEN] s1=6 s2=1 out=00 aligned=0 reset=0
# [GEN] s1=5 s2=8 out=00 aligned=0 reset=0
# [GEN] s1=c s2=c out=00 aligned=0 reset=0
# [GEN] s1=c s2=f out=00 aligned=0 reset=0
# [GEN] s1=b s2=c out=00 aligned=0 reset=0
# [GEN] s1=f s2=a out=00 aligned=0 reset=0
# [GEN] s1=9 s2=5 out=00 aligned=0 reset=0
# [GEN] s1=0 s2=e out=00 aligned=0 reset=0
# [GEN] s1=7 s2=4 out=00 aligned=0 reset=0
# [GEN] s1=0 s2=0 out=00 aligned=0 reset=1
#  MATCH: 0
#  MATCH: 0
#  MATCH: 0
#  MATCH: 0
# one
#  MATCH: 0
# [GEN] s1=b s2=7 out=00 aligned=0 reset=0
# [GEN] s1=c s2=f out=00 aligned=0 reset=0
# [GEN] s1=d s2=6 out=00 aligned=0 reset=0
# [GEN] s1=4 s2=a out=00 aligned=0 reset=0
# [GEN] s1=e s2=6 out=00 aligned=0 reset=0
# [GEN] s1=2 s2=e out=00 aligned=0 reset=0
# [GEN] s1=d s2=6 out=00 aligned=0 reset=0
# [GEN] s1=0 s2=f out=00 aligned=0 reset=0
# [GEN] s1=f s2=8 out=00 aligned=0 reset=0
# [GEN] s1=5 s2=8 out=00 aligned=0 reset=0
# [GEN] s1=a s2=8 out=00 aligned=0 reset=0
# [GEN] s1=c s2=e out=00 aligned=0 reset=0
# [GEN] s1=c s2=9 out=00 aligned=0 reset=0
# [GEN] s1=7 s2=5 out=00 aligned=0 reset=0
# [GEN] s1=0 s2=0 out=00 aligned=0 reset=1
#  MATCH: 0
#  MATCH: 0
#  MATCH: 0
#  MATCH: 0
#  MATCH: 0
# [GEN] s1=a s2=a out=00 aligned=0 reset=0
# [GEN] s1=b s2=5 out=00 aligned=0 reset=0
# [GEN] s1=0 s2=0 out=00 aligned=0 reset=0
# [GEN] s1=2 s2=a out=00 aligned=0 reset=0
# [GEN] s1=9 s2=e out=00 aligned=0 reset=0
# [GEN] s1=8 s2=e out=00 aligned=0 reset=0
# [GEN] s1=7 s2=d out=00 aligned=0 reset=0
# [GEN] s1=7 s2=1 out=00 aligned=0 reset=0
# [GEN] s1=2 s2=c out=00 aligned=0 reset=0
# [GEN] s1=e s2=b out=00 aligned=0 reset=0
# [GEN] s1=f s2=1 out=00 aligned=0 reset=0
# [GEN] s1=c s2=7 out=00 aligned=0 reset=0
# [GEN] s1=3 s2=e out=00 aligned=0 reset=0
# [GEN] s1=1 s2=a out=00 aligned=0 reset=0
# [GEN] s1=0 s2=0 out=00 aligned=0 reset=1
# [GEN] s1=a s2=7 out=00 aligned=0 reset=0
# [GEN] s1=9 s2=a out=00 aligned=0 reset=0
# [GEN] s1=5 s2=e out=00 aligned=0 reset=0
# [GEN] s1=c s2=a out=00 aligned=0 reset=0
# [GEN] s1=e s2=0 out=00 aligned=0 reset=0
# [GEN] s1=b s2=f out=00 aligned=0 reset=0
# [GEN] s1=e s2=c out=00 aligned=0 reset=0
# [GEN] s1=3 s2=5 out=00 aligned=0 reset=0
# [GEN] s1=c s2=7 out=00 aligned=0 reset=0
# [GEN] s1=9 s2=e out=00 aligned=0 reset=0
# [GEN] s1=8 s2=d out=00 aligned=0 reset=0
# [GEN] s1=9 s2=9 out=00 aligned=0 reset=0
# [GEN] s1=0 s2=0 out=00 aligned=0 reset=1
#  MATCH: 0
# both
#  MISMATCH
# State=2 c=0 LSB=0
# Expected: stream=0 aligned=1
# Got     : stream=0 aligned=0
#  MATCH: aa
#  MATCH: 50
#  MATCH: 1c
# [GEN] s1=9 s2=a out=00 aligned=0 reset=0
# [GEN] s1=0 s2=c out=00 aligned=0 reset=0
# [GEN] s1=e s2=9 out=00 aligned=0 reset=0
# [GEN] s1=a s2=b out=00 aligned=0 reset=0
# [GEN] s1=4 s2=2 out=00 aligned=0 reset=0
# [GEN] s1=6 s2=2 out=00 aligned=0 reset=0
# [GEN] s1=0 s2=5 out=00 aligned=0 reset=0
# [GEN] s1=b s2=1 out=00 aligned=0 reset=0
# [GEN] s1=e s2=e out=00 aligned=0 reset=0
# [GEN] s1=1 s2=3 out=00 aligned=0 reset=0
# [GEN] s1=4 s2=7 out=00 aligned=0 reset=0
# [GEN] s1=9 s2=a out=00 aligned=0 reset=0
# [GEN] s1=2 s2=f out=00 aligned=0 reset=0
# [GEN] s1=d s2=3 out=00 aligned=0 reset=0
# [GEN] s1=0 s2=0 out=00 aligned=0 reset=1
#  MATCH: a2
#  MATCH: df
#  MATCH: 40
#  MATCH: 53
#  MATCH: b9
# [GEN] s1=a s2=f out=00 aligned=0 reset=0
# [GEN] s1=0 s2=0 out=00 aligned=0 reset=1
# [GEN] s1=5 s2=c out=00 aligned=0 reset=0
# [GEN] s1=c s2=4 out=00 aligned=0 reset=0
# [GEN] s1=4 s2=c out=00 aligned=0 reset=0
# [GEN] s1=9 s2=a out=00 aligned=0 reset=0
# [GEN] s1=1 s2=8 out=00 aligned=0 reset=0
# [GEN] s1=0 s2=b out=00 aligned=0 reset=0
# [GEN] s1=8 s2=4 out=00 aligned=0 reset=0
# [GEN] s1=d s2=c out=00 aligned=0 reset=0
# [GEN] s1=e s2=2 out=00 aligned=0 reset=0
# [GEN] s1=8 s2=3 out=00 aligned=0 reset=0
# [GEN] s1=e s2=f out=00 aligned=0 reset=0
# [GEN] s1=a s2=5 out=00 aligned=0 reset=0
# [GEN] s1=d s2=6 out=00 aligned=0 reset=0
# [GEN] s1=a s2=0 out=00 aligned=0 reset=0
# [GEN] s1=0 s2=0 out=00 aligned=0 reset=1
#  MATCH: 84
#  MATCH: 43
#  MATCH: 7
#  MATCH: dc
#  MATCH: 6
# [GEN] s1=b s2=0 out=00 aligned=0 reset=0
# [GEN] s1=6 s2=2 out=00 aligned=0 reset=0
# [GEN] s1=9 s2=a out=00 aligned=0 reset=0
# [GEN] s1=1 s2=a out=00 aligned=0 reset=0
# [GEN] s1=9 s2=7 out=00 aligned=0 reset=0
# [GEN] s1=f s2=3 out=00 aligned=0 reset=0
# [GEN] s1=9 s2=8 out=00 aligned=0 reset=0
# [GEN] s1=6 s2=b out=00 aligned=0 reset=0
# [GEN] s1=2 s2=9 out=00 aligned=0 reset=0
# [GEN] s1=d s2=0 out=00 aligned=0 reset=0
# [GEN] s1=c s2=2 out=00 aligned=0 reset=0
# [GEN] s1=e s2=a out=00 aligned=0 reset=0
# [GEN] s1=b s2=4 out=00 aligned=0 reset=0
# [GEN] s1=e s2=a out=00 aligned=0 reset=0
# [GEN] s1=0 s2=0 out=00 aligned=0 reset=1
#  MISMATCH
# State=0 c=0 LSB=0
# Expected: stream=0 aligned=0
# Got     : stream=65 aligned=1
# one
#  MATCH: 0
#  MATCH: 0
#  MATCH: 0
#  MATCH: 0
# [GEN] s1=a s2=a out=00 aligned=0 reset=0
# [GEN] s1=a s2=f out=00 aligned=0 reset=0
# [GEN] s1=d s2=5 out=00 aligned=0 reset=0
# [GEN] s1=4 s2=a out=00 aligned=0 reset=0
# [GEN] s1=3 s2=1 out=00 aligned=0 reset=0
# [GEN] s1=f s2=f out=00 aligned=0 reset=0
# [GEN] s1=3 s2=e out=00 aligned=0 reset=0
# [GEN] s1=6 s2=5 out=00 aligned=0 reset=0
# [GEN] s1=e s2=9 out=00 aligned=0 reset=0
# [GEN] s1=9 s2=6 out=00 aligned=0 reset=0
# [GEN] s1=5 s2=2 out=00 aligned=0 reset=0
# [GEN] s1=2 s2=f out=00 aligned=0 reset=0
# [GEN] s1=b s2=c out=00 aligned=0 reset=0
# [GEN] s1=d s2=7 out=00 aligned=0 reset=0
# [GEN] s1=0 s2=0 out=00 aligned=0 reset=1
# [GEN] s1=a s2=a out=00 aligned=0 reset=0
# [GEN] s1=1 s2=5 out=00 aligned=0 reset=0
# [GEN] s1=5 s2=a out=00 aligned=0 reset=0
# [GEN] s1=a s2=2 out=00 aligned=0 reset=0
# [GEN] s1=5 s2=2 out=00 aligned=0 reset=0
# [GEN] s1=d s2=e out=00 aligned=0 reset=0
# [GEN] s1=9 s2=f out=00 aligned=0 reset=0
# [GEN] s1=7 s2=7 out=00 aligned=0 reset=0
# [GEN] s1=2 s2=5 out=00 aligned=0 reset=0
# [GEN] s1=0 s2=d out=00 aligned=0 reset=0
# [GEN] s1=0 s2=6 out=00 aligned=0 reset=0
# [GEN] s1=4 s2=0 out=00 aligned=0 reset=0
# [GEN] s1=8 s2=0 out=00 aligned=0 reset=0
# [GEN] s1=0 s2=0 out=00 aligned=0 reset=1
#  MATCH: 0
#  MATCH: 0
#  MATCH: 0
#  MATCH: 0
#  MATCH: 0
# [GEN] s1=9 s2=a out=00 aligned=0 reset=0
# [GEN] s1=a s2=b out=00 aligned=0 reset=0
# [GEN] s1=b s2=7 out=00 aligned=0 reset=0
# [GEN] s1=a s2=c out=00 aligned=0 reset=0
# [GEN] s1=4 s2=8 out=00 aligned=0 reset=0
# [GEN] s1=e s2=1 out=00 aligned=0 reset=0
# [GEN] s1=3 s2=c out=00 aligned=0 reset=0
# [GEN] s1=f s2=1 out=00 aligned=0 reset=0
# [GEN] s1=c s2=3 out=00 aligned=0 reset=0
# [GEN] s1=7 s2=7 out=00 aligned=0 reset=0
# [GEN] s1=8 s2=f out=00 aligned=0 reset=0
# [GEN] s1=a s2=1 out=00 aligned=0 reset=0
# [GEN] s1=0 s2=0 out=00 aligned=0 reset=1
#  MATCH: 0
#  MATCH: 0
#  MATCH: 0
#  MATCH: 0
#  MATCH: 0
# [GEN] s1=a s2=f out=00 aligned=0 reset=0
# [GEN] s1=0 s2=0 out=00 aligned=0 reset=1
# [GEN] s1=5 s2=7 out=00 aligned=0 reset=0
# [GEN] s1=0 s2=c out=00 aligned=0 reset=0
# [GEN] s1=e s2=1 out=00 aligned=0 reset=0
# [GEN] s1=f s2=4 out=00 aligned=0 reset=0
# [GEN] s1=1 s2=6 out=00 aligned=0 reset=0
# [GEN] s1=f s2=a out=00 aligned=0 reset=0
# [GEN] s1=5 s2=f out=00 aligned=0 reset=0
# [GEN] s1=d s2=9 out=00 aligned=0 reset=0
# [GEN] s1=e s2=c out=00 aligned=0 reset=0
# [GEN] s1=6 s2=2 out=00 aligned=0 reset=0
# [GEN] s1=8 s2=b out=00 aligned=0 reset=0
# [GEN] s1=2 s2=4 out=00 aligned=0 reset=0
# [GEN] s1=a s2=1 out=00 aligned=0 reset=0
# [GEN] s1=c s2=2 out=00 aligned=0 reset=0
# [GEN] s1=6 s2=6 out=00 aligned=0 reset=0
# [GEN] s1=b s2=5 out=00 aligned=0 reset=0
# [GEN] s1=0 s2=0 out=00 aligned=0 reset=1
#  MATCH: 0
# two
#  MATCH: 0
#  MATCH: 0
#  MATCH: 0
#  MATCH: 0
# [GEN] s1=b s2=c out=00 aligned=0 reset=0
# [GEN] s1=f s2=d out=00 aligned=0 reset=0
# [GEN] s1=e s2=3 out=00 aligned=0 reset=0
# [GEN] s1=e s2=a out=00 aligned=0 reset=0
# [GEN] s1=2 s2=9 out=00 aligned=0 reset=0
# [GEN] s1=2 s2=0 out=00 aligned=0 reset=0
# [GEN] s1=a s2=9 out=00 aligned=0 reset=0
# [GEN] s1=5 s2=c out=00 aligned=0 reset=0
# [GEN] s1=1 s2=6 out=00 aligned=0 reset=0
# [GEN] s1=8 s2=e out=00 aligned=0 reset=0
# [GEN] s1=1 s2=a out=00 aligned=0 reset=0
# [GEN] s1=d s2=a out=00 aligned=0 reset=0
# [GEN] s1=f s2=0 out=00 aligned=0 reset=0
# [GEN] s1=e s2=b out=00 aligned=0 reset=0
# [GEN] s1=0 s2=0 out=00 aligned=0 reset=1
#  MATCH: 0
#  MATCH: 0
#  MATCH: 0
#  MATCH: 0
#  MATCH: 0
# [GEN] s1=a s2=a out=00 aligned=0 reset=0
# [GEN] s1=2 s2=b out=00 aligned=0 reset=0
# [GEN] s1=d s2=3 out=00 aligned=0 reset=0
# [GEN] s1=5 s2=a out=00 aligned=0 reset=0
# [GEN] s1=3 s2=6 out=00 aligned=0 reset=0
# [GEN] s1=6 s2=2 out=00 aligned=0 reset=0
# [GEN] s1=e s2=6 out=00 aligned=0 reset=0
# [GEN] s1=f s2=7 out=00 aligned=0 reset=0
# [GEN] s1=f s2=b out=00 aligned=0 reset=0
# [GEN] s1=2 s2=9 out=00 aligned=0 reset=0
# [GEN] s1=4 s2=4 out=00 aligned=0 reset=0
# [GEN] s1=8 s2=1 out=00 aligned=0 reset=0
# [GEN] s1=d s2=a out=00 aligned=0 reset=0
# [GEN] s1=3 s2=b out=00 aligned=0 reset=0
# [GEN] s1=0 s2=0 out=00 aligned=0 reset=1
# [GEN] s1=a s2=5 out=00 aligned=0 reset=0
# [GEN] s1=4 s2=1 out=00 aligned=0 reset=0
# [GEN] s1=3 s2=9 out=00 aligned=0 reset=0
# [GEN] s1=a s2=a out=00 aligned=0 reset=0
# [GEN] s1=a s2=3 out=00 aligned=0 reset=0
# [GEN] s1=2 s2=2 out=00 aligned=0 reset=0
# [GEN] s1=d s2=6 out=00 aligned=0 reset=0
# [GEN] s1=c s2=9 out=00 aligned=0 reset=0
# [GEN] s1=2 s2=8 out=00 aligned=0 reset=0
# [GEN] s1=b s2=c out=00 aligned=0 reset=0
# [GEN] s1=5 s2=8 out=00 aligned=0 reset=0
# [GEN] s1=b s2=f out=00 aligned=0 reset=0
# [GEN] s1=2 s2=7 out=00 aligned=0 reset=0
# [GEN] s1=2 s2=8 out=00 aligned=0 reset=0
# [GEN] s1=0 s2=0 out=00 aligned=0 reset=1
#  MATCH: 0
# one
#  MATCH: 0
#  MATCH: 0
#  MATCH: 0
#  MATCH: 0
# [GEN] s1=9 s2=a out=00 aligned=0 reset=0
# [GEN] s1=a s2=b out=00 aligned=0 reset=0
# [GEN] s1=6 s2=d out=00 aligned=0 reset=0
# [GEN] s1=4 s2=8 out=00 aligned=0 reset=0
# [GEN] s1=7 s2=c out=00 aligned=0 reset=0
# [GEN] s1=7 s2=5 out=00 aligned=0 reset=0
# [GEN] s1=6 s2=3 out=00 aligned=0 reset=0
# [GEN] s1=1 s2=1 out=00 aligned=0 reset=0
# [GEN] s1=3 s2=1 out=00 aligned=0 reset=0
# [GEN] s1=e s2=d out=00 aligned=0 reset=0
# [GEN] s1=e s2=f out=00 aligned=0 reset=0
# [GEN] s1=4 s2=d out=00 aligned=0 reset=0
# [GEN] s1=0 s2=0 out=00 aligned=0 reset=1
#  MATCH: 0
# one
#  MATCH: 0
#  MATCH: 0
#  MATCH: 0
#  MISMATCH
# State=0 c=0 LSB=0
# Expected: stream=0 aligned=0
# Got     : stream=aa aligned=1
# [GEN] s1=a s2=9 out=00 aligned=0 reset=0
# [GEN] s1=0 s2=0 out=00 aligned=0 reset=1
# [GEN] s1=5 s2=3 out=00 aligned=0 reset=0
# [GEN] s1=a s2=6 out=00 aligned=0 reset=0
# [GEN] s1=c s2=2 out=00 aligned=0 reset=0
# [GEN] s1=6 s2=1 out=00 aligned=0 reset=0
# [GEN] s1=3 s2=a out=00 aligned=0 reset=0
# [GEN] s1=9 s2=5 out=00 aligned=0 reset=0
# [GEN] s1=a s2=1 out=00 aligned=0 reset=0
