de_skew/src/transcript
# //  Questa Sim-64
# //  Version 2021.2_1 linux_x86_64 May 15 2021
# //
# //  Copyright 1991-2021 Mentor Graphics Corporation
# //  All Rights Reserved.
# //
# //  QuestaSim and its associated documentation contain trade
# //  secrets and commercial or financial information that are the property of
# //  Mentor Graphics Corporation and are privileged, confidential,
# //  and exempt from disclosure under the Freedom of Information Act,
# //  5 U.S.C. Section 552. Furthermore, this information
# //  is prohibited from disclosure under the Trade Secrets Act,
# //  18 U.S.C. Section 1905.
# //
# vsim work.tb 
# Start time: 15:45:59 on Mar 31,2026
# ** Note: (vsim-3812) Design is being optimized...
# Loading sv_std.std
# Loading work.testbench_sv_unit(fast)
# Loading work.tb(fast)
# Loading work.des_if(fast)
do run_cov.tcl
# QuestaSim-64 vlog 2021.2_1 Compiler 2021.05 May 15 2021
# Start time: 15:46:16 on Mar 31,2026
# vlog -reportprogress 300 -sv "+cover=bcestf" rtl/de_skew.sv tb/testbench.sv 
# -- Compiling module de_skew
# -- Compiling interface des_if
# -- Compiling package testbench_sv_unit
# -- Compiling module tb
# 
# Top level modules:
# 	tb
# End time: 15:46:16 on Mar 31,2026, Elapsed time: 0:00:00
# Errors: 0, Warnings: 0
# End time: 15:46:18 on Mar 31,2026, Elapsed time: 0:00:19
# Errors: 0, Warnings: 0
# vsim -gui -coverage -assertdebug -voptargs="+acc" -onfinish stop work.tb 
# Start time: 15:46:18 on Mar 31,2026
# ** Note: (vsim-3812) Design is being optimized...
# ** Note: (vopt-143) Recognized 1 FSM in module "de_skew(fast)".
# Loading sv_std.std
# Loading work.testbench_sv_unit(fast)
# Loading work.tb(fast)
# Loading work.des_if(fast__2)
# Loading work.de_skew(fast)
# Loading work.des_if(fast)
# [GEN] s1=a s2=2 out=00 aligned=0 reset=0
# [GEN] s1=3 s2=4 out=00 aligned=0 reset=0
# [GEN] s1=e s2=a out=00 aligned=0 reset=0
# [GEN] s1=4 s2=e out=00 aligned=0 reset=0
# [GEN] s1=9 s2=5 out=00 aligned=0 reset=0
# [GEN] s1=2 s2=0 out=00 aligned=0 reset=0
# [GEN] s1=9 s2=d out=00 aligned=0 reset=0
# [GEN] s1=d s2=8 out=00 aligned=0 reset=0
# [GEN] s1=1 s2=7 out=00 aligned=0 reset=0
# [GEN] s1=a s2=3 out=00 aligned=0 reset=0
# [GEN] s1=2 s2=5 out=00 aligned=0 reset=0
# [GEN] s1=7 s2=d out=00 aligned=0 reset=0
# [GEN] s1=5 s2=4 out=00 aligned=0 reset=0
# [GEN] s1=0 s2=0 out=00 aligned=0 reset=1
# one
# scoreboard error
# [Passed] s1=e s2=a out=00 aligned=0 reset=0
# scoreboard error
# ** Error: FAIL: s1 - 4, s2 - e, 00 expected, got aa
#    Time: 65 ns  Scope: testbench_sv_unit.Scoreboard.run File: tb/scoreboard.sv Line: 58
# [GEN] s1=9 s2=a out=00 aligned=0 reset=0
# [GEN] s1=2 s2=6 out=00 aligned=0 reset=0
# [GEN] s1=8 s2=1 out=00 aligned=0 reset=0
# [GEN] s1=a s2=b out=00 aligned=0 reset=0
# [GEN] s1=a s2=4 out=00 aligned=0 reset=0
# [GEN] s1=2 s2=f out=00 aligned=0 reset=0
# [GEN] s1=9 s2=2 out=00 aligned=0 reset=0
# [GEN] s1=d s2=e out=00 aligned=0 reset=0
# [GEN] s1=7 s2=f out=00 aligned=0 reset=0
# [GEN] s1=5 s2=d out=00 aligned=0 reset=0
# [GEN] s1=1 s2=2 out=00 aligned=0 reset=0
# [GEN] s1=f s2=8 out=00 aligned=0 reset=0
# [GEN] s1=8 s2=c out=00 aligned=0 reset=0
# [GEN] s1=1 s2=f out=00 aligned=0 reset=0
# [GEN] s1=0 s2=0 out=00 aligned=0 reset=1
# scoreboard error
# ** Error: FAIL: s1 - 9, s2 - 5, 00 expected, got e3
#    Time: 75 ns  Scope: testbench_sv_unit.Scoreboard.run File: tb/scoreboard.sv Line: 58
# ** Error: Assertion error.
#    Time: 75 ns Started: 35 ns  Scope: tb.vif File: tb/interfaces.sv Line: 23 Expr: stream1==10
# scoreboard error
# ** Error: FAIL: s1 - 2, s2 - 0, 00 expected, got 5e
#    Time: 85 ns  Scope: testbench_sv_unit.Scoreboard.run File: tb/scoreboard.sv Line: 58
# scoreboard error
# ** Error: FAIL: s1 - 9, s2 - d, 00 expected, got 04
#    Time: 95 ns  Scope: testbench_sv_unit.Scoreboard.run File: tb/scoreboard.sv Line: 58
# scoreboard error
# ** Error: FAIL: s1 - d, s2 - 8, 00 expected, got d9
#    Time: 105 ns  Scope: testbench_sv_unit.Scoreboard.run File: tb/scoreboard.sv Line: 58
# scoreboard error
# ** Error: FAIL: s1 - 1, s2 - 7, 00 expected, got 82
#    Time: 115 ns  Scope: testbench_sv_unit.Scoreboard.run File: tb/scoreboard.sv Line: 58
# [GEN] s1=a s2=f out=00 aligned=0 reset=0
# [GEN] s1=0 s2=0 out=00 aligned=0 reset=1
# [GEN] s1=0 s2=9 out=00 aligned=0 reset=0
# [GEN] s1=f s2=9 out=00 aligned=0 reset=0
# [GEN] s1=1 s2=a out=00 aligned=0 reset=0
# [GEN] s1=0 s2=9 out=00 aligned=0 reset=0
# [GEN] s1=c s2=e out=00 aligned=0 reset=0
# [GEN] s1=f s2=5 out=00 aligned=0 reset=0
# [GEN] s1=2 s2=c out=00 aligned=0 reset=0
# [GEN] s1=9 s2=e out=00 aligned=0 reset=0
# [GEN] s1=c s2=f out=00 aligned=0 reset=0
# [GEN] s1=6 s2=e out=00 aligned=0 reset=0
# [GEN] s1=0 s2=3 out=00 aligned=0 reset=0
# [GEN] s1=b s2=b out=00 aligned=0 reset=0
# [GEN] s1=1 s2=2 out=00 aligned=0 reset=0
# [GEN] s1=0 s2=0 out=00 aligned=0 reset=1
# scoreboard error
# ** Error: FAIL: s1 - a, s2 - 3, 00 expected, got 79
#    Time: 125 ns  Scope: testbench_sv_unit.Scoreboard.run File: tb/scoreboard.sv Line: 58
# scoreboard error
# ** Error: FAIL: s1 - 2, s2 - 5, 00 expected, got 3d
#    Time: 135 ns  Scope: testbench_sv_unit.Scoreboard.run File: tb/scoreboard.sv Line: 58
# scoreboard error
# ** Error: FAIL: s1 - 7, s2 - d, 00 expected, got 51
#    Time: 145 ns  Scope: testbench_sv_unit.Scoreboard.run File: tb/scoreboard.sv Line: 58
# scoreboard error
# ** Error: FAIL: s1 - 5, s2 - 4, 00 expected, got da
#    Time: 155 ns  Scope: testbench_sv_unit.Scoreboard.run File: tb/scoreboard.sv Line: 58
# scoreboard error
# ** Error: FAIL: s1 - 0, s2 - 0, 00 expected, got 42
#    Time: 165 ns  Scope: testbench_sv_unit.Scoreboard.run File: tb/scoreboard.sv Line: 58
# two
# [GEN] s1=b s2=8 out=00 aligned=0 reset=0
# [GEN] s1=2 s2=7 out=00 aligned=0 reset=0
# [GEN] s1=3 s2=f out=00 aligned=0 reset=0
# [GEN] s1=7 s2=a out=00 aligned=0 reset=0
# [GEN] s1=5 s2=a out=00 aligned=0 reset=0
# [GEN] s1=0 s2=6 out=00 aligned=0 reset=0
# [GEN] s1=6 s2=9 out=00 aligned=0 reset=0
# [GEN] s1=0 s2=f out=00 aligned=0 reset=0
# [GEN] s1=a s2=2 out=00 aligned=0 reset=0
# [GEN] s1=5 s2=f out=00 aligned=0 reset=0
# [GEN] s1=1 s2=8 out=00 aligned=0 reset=0
# [GEN] s1=4 s2=5 out=00 aligned=0 reset=0
# [GEN] s1=4 s2=c out=00 aligned=0 reset=0
# [GEN] s1=3 s2=3 out=00 aligned=0 reset=0
# [GEN] s1=0 s2=0 out=00 aligned=0 reset=1
# [GEN] s1=a s2=a out=00 aligned=0 reset=0
# [GEN] s1=0 s2=5 out=00 aligned=0 reset=0
# [GEN] s1=c s2=1 out=00 aligned=0 reset=0
# [GEN] s1=2 s2=a out=00 aligned=0 reset=0
# [GEN] s1=f s2=d out=00 aligned=0 reset=0
# [GEN] s1=0 s2=4 out=00 aligned=0 reset=0
# [GEN] s1=3 s2=5 out=00 aligned=0 reset=0
# [GEN] s1=9 s2=b out=00 aligned=0 reset=0
# [GEN] s1=4 s2=8 out=00 aligned=0 reset=0
# [GEN] s1=3 s2=4 out=00 aligned=0 reset=0
# [GEN] s1=7 s2=0 out=00 aligned=0 reset=0
# [GEN] s1=c s2=d out=00 aligned=0 reset=0
# [GEN] s1=6 s2=0 out=00 aligned=0 reset=0
# [GEN] s1=5 s2=6 out=00 aligned=0 reset=0
# [GEN] s1=0 s2=0 out=00 aligned=0 reset=1
# [GEN] s1=a s2=e out=00 aligned=0 reset=0
# [GEN] s1=c s2=c out=00 aligned=0 reset=0
# [GEN] s1=1 s2=7 out=00 aligned=0 reset=0
# [GEN] s1=1 s2=a out=00 aligned=0 reset=0
# [GEN] s1=5 s2=5 out=00 aligned=0 reset=0
# [GEN] s1=3 s2=c out=00 aligned=0 reset=0
# [GEN] s1=1 s2=e out=00 aligned=0 reset=0
# [GEN] s1=b s2=d out=00 aligned=0 reset=0
# [GEN] s1=5 s2=5 out=00 aligned=0 reset=0
# [GEN] s1=e s2=b out=00 aligned=0 reset=0
# [GEN] s1=8 s2=7 out=00 aligned=0 reset=0
# [GEN] s1=1 s2=7 out=00 aligned=0 reset=0
# [GEN] s1=7 s2=1 out=00 aligned=0 reset=0
# [GEN] s1=8 s2=e out=00 aligned=0 reset=0
# [GEN] s1=0 s2=0 out=00 aligned=0 reset=1
# [GEN] s1=9 s2=a out=00 aligned=0 reset=0
# [GEN] s1=f s2=d out=00 aligned=0 reset=0
# [GEN] s1=8 s2=0 out=00 aligned=0 reset=0
# [GEN] s1=a s2=b out=00 aligned=0 reset=0
# [GEN] s1=7 s2=c out=00 aligned=0 reset=0
# [GEN] s1=6 s2=d out=00 aligned=0 reset=0
# [GEN] s1=3 s2=5 out=00 aligned=0 reset=0
# [GEN] s1=7 s2=3 out=00 aligned=0 reset=0
# [GEN] s1=f s2=1 out=00 aligned=0 reset=0
# [GEN] s1=3 s2=8 out=00 aligned=0 reset=0
# [GEN] s1=a s2=d out=00 aligned=0 reset=0
# [GEN] s1=e s2=d out=00 aligned=0 reset=0
# [GEN] s1=6 s2=c out=00 aligned=0 reset=0
# [GEN] s1=9 s2=7 out=00 aligned=0 reset=0
# [GEN] s1=0 s2=0 out=00 aligned=0 reset=1
# one
# [GEN] s1=a s2=3 out=00 aligned=0 reset=0
# [GEN] s1=0 s2=0 out=00 aligned=0 reset=1
# [GEN] s1=1 s2=a out=00 aligned=0 reset=0
# [GEN] s1=6 s2=d out=00 aligned=0 reset=0
# [GEN] s1=6 s2=2 out=00 aligned=0 reset=0
# [GEN] s1=b s2=4 out=00 aligned=0 reset=0
# [GEN] s1=7 s2=c out=00 aligned=0 reset=0
# [GEN] s1=0 s2=e out=00 aligned=0 reset=0
# [GEN] s1=a s2=a out=00 aligned=0 reset=0
# [GEN] s1=2 s2=5 out=00 aligned=0 reset=0
# [GEN] s1=f s2=f out=00 aligned=0 reset=0
# [GEN] s1=f s2=e out=00 aligned=0 reset=0
# [GEN] s1=5 s2=0 out=00 aligned=0 reset=0
# [GEN] s1=0 s2=0 out=00 aligned=0 reset=1
# [GEN] s1=b s2=b out=00 aligned=0 reset=0
# [GEN] s1=d s2=1 out=00 aligned=0 reset=0
# [GEN] s1=0 s2=8 out=00 aligned=0 reset=0
# [GEN] s1=9 s2=a out=00 aligned=0 reset=0
# [GEN] s1=4 s2=a out=00 aligned=0 reset=0
# [GEN] s1=d s2=c out=00 aligned=0 reset=0
# [GEN] s1=d s2=9 out=00 aligned=0 reset=0
# [GEN] s1=0 s2=b out=00 aligned=0 reset=0
# [GEN] s1=3 s2=8 out=00 aligned=0 reset=0
# [GEN] s1=7 s2=b out=00 aligned=0 reset=0
# [GEN] s1=2 s2=1 out=00 aligned=0 reset=0
# [GEN] s1=f s2=f out=00 aligned=0 reset=0
# [GEN] s1=2 s2=8 out=00 aligned=0 reset=0
# [GEN] s1=6 s2=f out=00 aligned=0 reset=0
# [GEN] s1=0 s2=0 out=00 aligned=0 reset=1
# [GEN] s1=a s2=a out=00 aligned=0 reset=0
# [GEN] s1=e s2=5 out=00 aligned=0 reset=0
# [GEN] s1=8 s2=c out=00 aligned=0 reset=0
# [GEN] s1=1 s2=a out=00 aligned=0 reset=0
# [GEN] s1=f s2=c out=00 aligned=0 reset=0
# [GEN] s1=5 s2=d out=00 aligned=0 reset=0
# [GEN] s1=9 s2=7 out=00 aligned=0 reset=0
# [GEN] s1=5 s2=d out=00 aligned=0 reset=0
# [GEN] s1=7 s2=0 out=00 aligned=0 reset=0
# [GEN] s1=4 s2=8 out=00 aligned=0 reset=0
# [GEN] s1=c s2=f out=00 aligned=0 reset=0
# [GEN] s1=b s2=9 out=00 aligned=0 reset=0
# [GEN] s1=e s2=6 out=00 aligned=0 reset=0
# [GEN] s1=5 s2=f out=00 aligned=0 reset=0
# [GEN] s1=0 s2=0 out=00 aligned=0 reset=1
# [GEN] s1=a s2=f out=00 aligned=0 reset=0
# [GEN] s1=c s2=a out=00 aligned=0 reset=0
# [GEN] s1=7 s2=5 out=00 aligned=0 reset=0
# [GEN] s1=4 s2=0 out=00 aligned=0 reset=0
# [GEN] s1=9 s2=2 out=00 aligned=0 reset=0
# [GEN] s1=3 s2=2 out=00 aligned=0 reset=0
# [GEN] s1=9 s2=2 out=00 aligned=0 reset=0
# [GEN] s1=6 s2=5 out=00 aligned=0 reset=0
# [GEN] s1=3 s2=8 out=00 aligned=0 reset=0
# [GEN] s1=d s2=1 out=00 aligned=0 reset=0
# [GEN] s1=6 s2=4 out=00 aligned=0 reset=0
# [GEN] s1=4 s2=6 out=00 aligned=0 reset=0
# [GEN] s1=0 s2=0 out=00 aligned=0 reset=1
# [GEN] s1=9 s2=a out=00 aligned=0 reset=0
# [GEN] s1=3 s2=8 out=00 aligned=0 reset=0
# [GEN] s1=3 s2=a out=00 aligned=0 reset=0
# [GEN] s1=a s2=b out=00 aligned=0 reset=0
# [GEN] s1=f s2=4 out=00 aligned=0 reset=0
# [GEN] s1=3 s2=a out=00 aligned=0 reset=0
# [GEN] s1=6 s2=b out=00 aligned=0 reset=0
# [GEN] s1=b s2=5 out=00 aligned=0 reset=0
# [GEN] s1=7 s2=b out=00 aligned=0 reset=0
# [GEN] s1=6 s2=1 out=00 aligned=0 reset=0
# [GEN] s1=d s2=d out=00 aligned=0 reset=0
# [GEN] s1=6 s2=2 out=00 aligned=0 reset=0
# [GEN] s1=9 s2=f out=00 aligned=0 reset=0
# [GEN] s1=b s2=9 out=00 aligned=0 reset=0
# [GEN] s1=0 s2=0 out=00 aligned=0 reset=1
# two
# [GEN] s1=a s2=1 out=00 aligned=0 reset=0
# [GEN] s1=0 s2=0 out=00 aligned=0 reset=1
# [GEN] s1=a s2=b out=00 aligned=0 reset=0
# [GEN] s1=a s2=5 out=00 aligned=0 reset=0
# [GEN] s1=e s2=8 out=00 aligned=0 reset=0
# [GEN] s1=6 s2=4 out=00 aligned=0 reset=0
# [GEN] s1=2 s2=a out=00 aligned=0 reset=0
# [GEN] s1=d s2=5 out=00 aligned=0 reset=0
# [GEN] s1=6 s2=1 out=00 aligned=0 reset=0
# [GEN] s1=5 s2=8 out=00 aligned=0 reset=0
# [GEN] s1=c s2=c out=00 aligned=0 reset=0
# [GEN] s1=c s2=f out=00 aligned=0 reset=0
# [GEN] s1=b s2=c out=00 aligned=0 reset=0
# [GEN] s1=f s2=a out=00 aligned=0 reset=0
# [GEN] s1=9 s2=5 out=00 aligned=0 reset=0
# [GEN] s1=0 s2=e out=00 aligned=0 reset=0
# [GEN] s1=7 s2=4 out=00 aligned=0 reset=0
# [GEN] s1=0 s2=0 out=00 aligned=0 reset=1
# one
# [GEN] s1=b s2=7 out=00 aligned=0 reset=0
# [GEN] s1=c s2=f out=00 aligned=0 reset=0
# [GEN] s1=d s2=6 out=00 aligned=0 reset=0
# [GEN] s1=4 s2=a out=00 aligned=0 reset=0
# [GEN] s1=e s2=6 out=00 aligned=0 reset=0
# [GEN] s1=2 s2=e out=00 aligned=0 reset=0
# [GEN] s1=d s2=6 out=00 aligned=0 reset=0
# [GEN] s1=0 s2=f out=00 aligned=0 reset=0
# [GEN] s1=f s2=8 out=00 aligned=0 reset=0
# [GEN] s1=5 s2=8 out=00 aligned=0 reset=0
# [GEN] s1=a s2=8 out=00 aligned=0 reset=0
# [GEN] s1=c s2=e out=00 aligned=0 reset=0
# [GEN] s1=c s2=9 out=00 aligned=0 reset=0
# [GEN] s1=7 s2=5 out=00 aligned=0 reset=0
# [GEN] s1=0 s2=0 out=00 aligned=0 reset=1
# [GEN] s1=a s2=a out=00 aligned=0 reset=0
# [GEN] s1=b s2=5 out=00 aligned=0 reset=0
# [GEN] s1=0 s2=0 out=00 aligned=0 reset=0
# [GEN] s1=2 s2=a out=00 aligned=0 reset=0
# [GEN] s1=9 s2=e out=00 aligned=0 reset=0
# [GEN] s1=8 s2=e out=00 aligned=0 reset=0
# [GEN] s1=7 s2=d out=00 aligned=0 reset=0
# [GEN] s1=7 s2=1 out=00 aligned=0 reset=0
# [GEN] s1=2 s2=c out=00 aligned=0 reset=0
# [GEN] s1=e s2=b out=00 aligned=0 reset=0
# [GEN] s1=f s2=1 out=00 aligned=0 reset=0
# [GEN] s1=c s2=7 out=00 aligned=0 reset=0
# [GEN] s1=3 s2=e out=00 aligned=0 reset=0
# [GEN] s1=1 s2=a out=00 aligned=0 reset=0
# [GEN] s1=0 s2=0 out=00 aligned=0 reset=1
# [GEN] s1=a s2=7 out=00 aligned=0 reset=0
# [GEN] s1=9 s2=a out=00 aligned=0 reset=0
# [GEN] s1=5 s2=e out=00 aligned=0 reset=0
# [GEN] s1=c s2=a out=00 aligned=0 reset=0
# [GEN] s1=e s2=0 out=00 aligned=0 reset=0
# [GEN] s1=b s2=f out=00 aligned=0 reset=0
# [GEN] s1=e s2=c out=00 aligned=0 reset=0
# [GEN] s1=3 s2=5 out=00 aligned=0 reset=0
# [GEN] s1=c s2=7 out=00 aligned=0 reset=0
# [GEN] s1=9 s2=e out=00 aligned=0 reset=0
# [GEN] s1=8 s2=d out=00 aligned=0 reset=0
# [GEN] s1=9 s2=9 out=00 aligned=0 reset=0
# [GEN] s1=0 s2=0 out=00 aligned=0 reset=1
# both
# scoreboard error
# [Passed] s1=a s2=a out=00 aligned=0 reset=0
# ** Error: FAIL: s1 - 0, s2 - 5, 00 expected, got aa
#    Time: 645 ns  Scope: testbench_sv_unit.Scoreboard.run File: tb/scoreboard.sv Line: 58
# ** Error: FAIL 00 expected, got aa
#    Time: 645 ns  Scope: testbench_sv_unit.Scoreboard.run File: tb/scoreboard.sv Line: 63
# ** Error: FAIL: s1 - c, s2 - 1, aa expected, got 50
#    Time: 655 ns  Scope: testbench_sv_unit.Scoreboard.run File: tb/scoreboard.sv Line: 58
# ** Error: FAIL aa expected, got 50
#    Time: 655 ns  Scope: testbench_sv_unit.Scoreboard.run File: tb/scoreboard.sv Line: 63
# scoreboard error
# ** Error: FAIL: s1 - 2, s2 - a, 00 expected, got 1c
#    Time: 665 ns  Scope: testbench_sv_unit.Scoreboard.run File: tb/scoreboard.sv Line: 58
# [GEN] s1=9 s2=a out=00 aligned=0 reset=0
# [GEN] s1=0 s2=c out=00 aligned=0 reset=0
# [GEN] s1=e s2=9 out=00 aligned=0 reset=0
# [GEN] s1=a s2=b out=00 aligned=0 reset=0
# [GEN] s1=4 s2=2 out=00 aligned=0 reset=0
# [GEN] s1=6 s2=2 out=00 aligned=0 reset=0
# [GEN] s1=0 s2=5 out=00 aligned=0 reset=0
# [GEN] s1=b s2=1 out=00 aligned=0 reset=0
# [GEN] s1=e s2=e out=00 aligned=0 reset=0
# [GEN] s1=1 s2=3 out=00 aligned=0 reset=0
# [GEN] s1=4 s2=7 out=00 aligned=0 reset=0
# [GEN] s1=9 s2=a out=00 aligned=0 reset=0
# [GEN] s1=2 s2=f out=00 aligned=0 reset=0
# [GEN] s1=d s2=3 out=00 aligned=0 reset=0
# [GEN] s1=0 s2=0 out=00 aligned=0 reset=1
# scoreboard error
# ** Error: FAIL: s1 - f, s2 - d, 00 expected, got a2
#    Time: 675 ns  Scope: testbench_sv_unit.Scoreboard.run File: tb/scoreboard.sv Line: 58
# scoreboard error
# ** Error: FAIL: s1 - 0, s2 - 4, 00 expected, got df
#    Time: 685 ns  Scope: testbench_sv_unit.Scoreboard.run File: tb/scoreboard.sv Line: 58
# scoreboard error
# ** Error: FAIL: s1 - 3, s2 - 5, 00 expected, got 40
#    Time: 695 ns  Scope: testbench_sv_unit.Scoreboard.run File: tb/scoreboard.sv Line: 58
# scoreboard error
# ** Error: FAIL: s1 - 9, s2 - b, 00 expected, got 53
#    Time: 705 ns  Scope: testbench_sv_unit.Scoreboard.run File: tb/scoreboard.sv Line: 58
# scoreboard error
# ** Error: FAIL: s1 - 4, s2 - 8, 00 expected, got b9
#    Time: 715 ns  Scope: testbench_sv_unit.Scoreboard.run File: tb/scoreboard.sv Line: 58
# [GEN] s1=a s2=f out=00 aligned=0 reset=0
# [GEN] s1=0 s2=0 out=00 aligned=0 reset=1
# [GEN] s1=5 s2=c out=00 aligned=0 reset=0
# [GEN] s1=c s2=4 out=00 aligned=0 reset=0
# [GEN] s1=4 s2=c out=00 aligned=0 reset=0
# [GEN] s1=9 s2=a out=00 aligned=0 reset=0
# [GEN] s1=1 s2=8 out=00 aligned=0 reset=0
# [GEN] s1=0 s2=b out=00 aligned=0 reset=0
# [GEN] s1=8 s2=4 out=00 aligned=0 reset=0
# [GEN] s1=d s2=c out=00 aligned=0 reset=0
# [GEN] s1=e s2=2 out=00 aligned=0 reset=0
# [GEN] s1=8 s2=3 out=00 aligned=0 reset=0
# [GEN] s1=e s2=f out=00 aligned=0 reset=0
# [GEN] s1=a s2=5 out=00 aligned=0 reset=0
# [GEN] s1=d s2=6 out=00 aligned=0 reset=0
# [GEN] s1=a s2=0 out=00 aligned=0 reset=0
# [GEN] s1=0 s2=0 out=00 aligned=0 reset=1
# scoreboard error
# ** Error: FAIL: s1 - 3, s2 - 4, 00 expected, got 84
#    Time: 725 ns  Scope: testbench_sv_unit.Scoreboard.run File: tb/scoreboard.sv Line: 58
# scoreboard error
# ** Error: FAIL: s1 - 7, s2 - 0, 00 expected, got 43
#    Time: 735 ns  Scope: testbench_sv_unit.Scoreboard.run File: tb/scoreboard.sv Line: 58
# scoreboard error
# ** Error: FAIL: s1 - c, s2 - d, 00 expected, got 07
#    Time: 745 ns  Scope: testbench_sv_unit.Scoreboard.run File: tb/scoreboard.sv Line: 58
# scoreboard error
# ** Error: FAIL: s1 - 6, s2 - 0, 00 expected, got dc
#    Time: 755 ns  Scope: testbench_sv_unit.Scoreboard.run File: tb/scoreboard.sv Line: 58
# scoreboard error
# ** Error: FAIL: s1 - 5, s2 - 6, 00 expected, got 06
#    Time: 765 ns  Scope: testbench_sv_unit.Scoreboard.run File: tb/scoreboard.sv Line: 58
# [GEN] s1=b s2=0 out=00 aligned=0 reset=0
# [GEN] s1=6 s2=2 out=00 aligned=0 reset=0
# [GEN] s1=9 s2=a out=00 aligned=0 reset=0
# [GEN] s1=1 s2=a out=00 aligned=0 reset=0
# [GEN] s1=9 s2=7 out=00 aligned=0 reset=0
# [GEN] s1=f s2=3 out=00 aligned=0 reset=0
# [GEN] s1=9 s2=8 out=00 aligned=0 reset=0
# [GEN] s1=6 s2=b out=00 aligned=0 reset=0
# [GEN] s1=2 s2=9 out=00 aligned=0 reset=0
# [GEN] s1=d s2=0 out=00 aligned=0 reset=0
# [GEN] s1=c s2=2 out=00 aligned=0 reset=0
# [GEN] s1=e s2=a out=00 aligned=0 reset=0
# [GEN] s1=b s2=4 out=00 aligned=0 reset=0
# [GEN] s1=e s2=a out=00 aligned=0 reset=0
# [GEN] s1=0 s2=0 out=00 aligned=0 reset=1
# scoreboard error
# ** Error: FAIL: s1 - 0, s2 - 0, 00 expected, got 65
#    Time: 775 ns  Scope: testbench_sv_unit.Scoreboard.run File: tb/scoreboard.sv Line: 58
# one
# [GEN] s1=a s2=a out=00 aligned=0 reset=0
# [GEN] s1=a s2=f out=00 aligned=0 reset=0
# [GEN] s1=d s2=5 out=00 aligned=0 reset=0
# [GEN] s1=4 s2=a out=00 aligned=0 reset=0
# [GEN] s1=3 s2=1 out=00 aligned=0 reset=0
# [GEN] s1=f s2=f out=00 aligned=0 reset=0
# [GEN] s1=3 s2=e out=00 aligned=0 reset=0
# [GEN] s1=6 s2=5 out=00 aligned=0 reset=0
# [GEN] s1=e s2=9 out=00 aligned=0 reset=0
# [GEN] s1=9 s2=6 out=00 aligned=0 reset=0
# [GEN] s1=5 s2=2 out=00 aligned=0 reset=0
# [GEN] s1=2 s2=f out=00 aligned=0 reset=0
# [GEN] s1=b s2=c out=00 aligned=0 reset=0
# [GEN] s1=d s2=7 out=00 aligned=0 reset=0
# [GEN] s1=0 s2=0 out=00 aligned=0 reset=1
# [GEN] s1=a s2=a out=00 aligned=0 reset=0
# [GEN] s1=1 s2=5 out=00 aligned=0 reset=0
# [GEN] s1=5 s2=a out=00 aligned=0 reset=0
# [GEN] s1=a s2=2 out=00 aligned=0 reset=0
# [GEN] s1=5 s2=2 out=00 aligned=0 reset=0
# [GEN] s1=d s2=e out=00 aligned=0 reset=0
# [GEN] s1=9 s2=f out=00 aligned=0 reset=0
# [GEN] s1=7 s2=7 out=00 aligned=0 reset=0
# [GEN] s1=2 s2=5 out=00 aligned=0 reset=0
# [GEN] s1=0 s2=d out=00 aligned=0 reset=0
# [GEN] s1=0 s2=6 out=00 aligned=0 reset=0
# [GEN] s1=4 s2=0 out=00 aligned=0 reset=0
# [GEN] s1=8 s2=0 out=00 aligned=0 reset=0
# [GEN] s1=0 s2=0 out=00 aligned=0 reset=1
# [GEN] s1=9 s2=a out=00 aligned=0 reset=0
# [GEN] s1=a s2=b out=00 aligned=0 reset=0
# [GEN] s1=b s2=7 out=00 aligned=0 reset=0
# [GEN] s1=a s2=c out=00 aligned=0 reset=0
# [GEN] s1=4 s2=8 out=00 aligned=0 reset=0
# [GEN] s1=e s2=1 out=00 aligned=0 reset=0
# [GEN] s1=3 s2=c out=00 aligned=0 reset=0
# [GEN] s1=f s2=1 out=00 aligned=0 reset=0
# [GEN] s1=c s2=3 out=00 aligned=0 reset=0
# [GEN] s1=7 s2=7 out=00 aligned=0 reset=0
# [GEN] s1=8 s2=f out=00 aligned=0 reset=0
# [GEN] s1=a s2=1 out=00 aligned=0 reset=0
# [GEN] s1=0 s2=0 out=00 aligned=0 reset=1
# [GEN] s1=a s2=f out=00 aligned=0 reset=0
# [GEN] s1=0 s2=0 out=00 aligned=0 reset=1
# [GEN] s1=5 s2=7 out=00 aligned=0 reset=0
# [GEN] s1=0 s2=c out=00 aligned=0 reset=0
# [GEN] s1=e s2=1 out=00 aligned=0 reset=0
# [GEN] s1=f s2=4 out=00 aligned=0 reset=0
# [GEN] s1=1 s2=6 out=00 aligned=0 reset=0
# [GEN] s1=f s2=a out=00 aligned=0 reset=0
# [GEN] s1=5 s2=f out=00 aligned=0 reset=0
# [GEN] s1=d s2=9 out=00 aligned=0 reset=0
# [GEN] s1=e s2=c out=00 aligned=0 reset=0
# [GEN] s1=6 s2=2 out=00 aligned=0 reset=0
# [GEN] s1=8 s2=b out=00 aligned=0 reset=0
# [GEN] s1=2 s2=4 out=00 aligned=0 reset=0
# [GEN] s1=a s2=1 out=00 aligned=0 reset=0
# [GEN] s1=c s2=2 out=00 aligned=0 reset=0
# [GEN] s1=6 s2=6 out=00 aligned=0 reset=0
# [GEN] s1=b s2=5 out=00 aligned=0 reset=0
# [GEN] s1=0 s2=0 out=00 aligned=0 reset=1
# two
# [GEN] s1=b s2=c out=00 aligned=0 reset=0
# [GEN] s1=f s2=d out=00 aligned=0 reset=0
# [GEN] s1=e s2=3 out=00 aligned=0 reset=0
# [GEN] s1=e s2=a out=00 aligned=0 reset=0
# [GEN] s1=2 s2=9 out=00 aligned=0 reset=0
# [GEN] s1=2 s2=0 out=00 aligned=0 reset=0
# [GEN] s1=a s2=9 out=00 aligned=0 reset=0
# [GEN] s1=5 s2=c out=00 aligned=0 reset=0
# [GEN] s1=1 s2=6 out=00 aligned=0 reset=0
# [GEN] s1=8 s2=e out=00 aligned=0 reset=0
# [GEN] s1=1 s2=a out=00 aligned=0 reset=0
# [GEN] s1=d s2=a out=00 aligned=0 reset=0
# [GEN] s1=f s2=0 out=00 aligned=0 reset=0
# [GEN] s1=e s2=b out=00 aligned=0 reset=0
# [GEN] s1=0 s2=0 out=00 aligned=0 reset=1
# [GEN] s1=a s2=a out=00 aligned=0 reset=0
# [GEN] s1=2 s2=b out=00 aligned=0 reset=0
# [GEN] s1=d s2=3 out=00 aligned=0 reset=0
# [GEN] s1=5 s2=a out=00 aligned=0 reset=0
# [GEN] s1=3 s2=6 out=00 aligned=0 reset=0
# [GEN] s1=6 s2=2 out=00 aligned=0 reset=0
# [GEN] s1=e s2=6 out=00 aligned=0 reset=0
# [GEN] s1=f s2=7 out=00 aligned=0 reset=0
# [GEN] s1=f s2=b out=00 aligned=0 reset=0
# [GEN] s1=2 s2=9 out=00 aligned=0 reset=0
# [GEN] s1=4 s2=4 out=00 aligned=0 reset=0
# [GEN] s1=8 s2=1 out=00 aligned=0 reset=0
# [GEN] s1=d s2=a out=00 aligned=0 reset=0
# [GEN] s1=3 s2=b out=00 aligned=0 reset=0
# [GEN] s1=0 s2=0 out=00 aligned=0 reset=1
# [GEN] s1=a s2=5 out=00 aligned=0 reset=0
# [GEN] s1=4 s2=1 out=00 aligned=0 reset=0
# [GEN] s1=3 s2=9 out=00 aligned=0 reset=0
